Name,Sex,Event,Division,WeightClassKg,Equipment,State,Country,Best3BenchKg,Bench4Kg,Best3DeadliftKg,Deadlift4Kg,TotalKg,Place
John Stewart,M,B,Elite Open Men,125,Single-ply,TX,USA,,,,,,DQ
Tiny Meeker,M,B,Elite Open Men,140,Single-ply,TX,USA,377.39,,,,377.39,1
Robert Vick,M,B,Elite Open Men,140+,Single-ply,IL,USA,,,,,,DQ
Gary Bobrovitz,M,B,Open Men,60,Single-ply,,CAN,132.95,134.94,,,132.95,1
David R Smith,M,B,Open Men,67.5,Single-ply,TX,USA,197.4,,,,197.4,1
Alfredo Evangelista,M,B,Open Men,67.5,Single-ply,OR,USA,187.42,,,,187.42,2
Sheldon Weingust,M,B,Open Men,75,Single-ply,TX,USA,192.41,,,,192.41,1
Mark Camacho,M,B,Open Men,75,Single-ply,TX,USA,167.47,,,,167.47,2
Kenny Lyons,M,B,Open Men,75,Single-ply,ID,USA,154.9,,,,154.9,3
Dave Constantineau,M,B,Open Men,75,Single-ply,WI,USA,147.42,,,,147.42,4
John Petersen,M,B,Open Men,75,Single-ply,WI,USA,144.92,,,,144.92,5
Kim Päivöke,M,B,Open Men,82.5,Single-ply,,FIN,229.97,,,,229.97,1
Sakari Selkäinaho,M,B,Open Men,82.5,Single-ply,,FIN,212.37,,,,212.37,2
Don Linerud,M,B,Open Men,82.5,Single-ply,ID,USA,,,,,,DQ
Tomi Vikla,M,B,Open Men,82.5,Single-ply,,FIN,,,,,,DQ
James Burdette,M,B,Open Men,90,Single-ply,CA,USA,272.47,,,,272.47,1
Josh Decker,M,B,Open Men,90,Single-ply,MI,USA,247.93,,,,247.93,2
Jason Carson,M,B,Open Men,90,Single-ply,IL,USA,247.43,,,,247.43,3
Christopher Gillam,M,B,Open Men,90,Single-ply,AZ,USA,229.97,,,,229.97,4
Matthew Ogurek,M,B,Open Men,90,Single-ply,MI,USA,209.88,,,,209.88,5
Jeff Sussman,M,B,Open Men,90,Single-ply,CO,USA,207.38,,,,207.38,6
Ahmed Abukhater,M,B,Open Men,90,Single-ply,,PLE,204.89,,,,204.89,7
Dan Simpson,M,B,Open Men,90,Single-ply,OR,USA,,,,,,DQ
Joe Valtierra,M,B,Open Men,90,Single-ply,TX,USA,,,,,,DQ
Butch Zemaitis,M,B,Open Men,90,Single-ply,PA,USA,,,,,,DQ
Trey Jewett,M,B,Open Men,100,Single-ply,TX,USA,320.37,,,,320.37,1
Rick Marrama,M,B,Open Men,100,Single-ply,MA,USA,302.41,,,,302.41,2
Jose Mireles,M,B,Open Men,100,Single-ply,MI,USA,292.43,,,,292.43,3
Kenneth Millrany,M,B,Open Men,100,Single-ply,TN,USA,287.44,,,,287.44,4
Mark Arnold,M,B,Open Men,100,Single-ply,GA,USA,249.93,,,,249.93,5
Ray Perez,M,B,Open Men,100,Single-ply,CA,USA,244.94,,,,244.94,6
Juha Pukkila,M,B,Open Men,100,Single-ply,,FIN,219.99,,,,219.99,7
Chris Morris,M,B,Open Men,100,Single-ply,PA,USA,194.91,,,,194.91,8
Will Beavers,M,B,Open Men,100,Single-ply,CA,USA,,,,,,DQ
Chad Bertelmann,M,B,Open Men,100,Single-ply,HI,USA,,,,,,DQ
Coby Washburn,M,B,Open Men,100,Single-ply,TX,USA,,,,,,DQ
James Hunter,M,B,Open Men,110,Single-ply,CA,USA,309.89,,,,309.89,1
Christopher Carson,M,B,Open Men,110,Single-ply,OH,USA,289.94,,,,289.94,2
Adrian Larsen,M,B,Open Men,110,Single-ply,OR,USA,287.44,,,,287.44,3
Rodric Thomas,M,B,Open Men,110,Single-ply,GA,USA,264.9,,,,264.9,4
Jari Rosendahl,M,B,Open Men,110,Single-ply,,FIN,259.91,,,,259.91,5
Todd Norman,M,B,Open Men,110,Single-ply,OH,USA,249.93,,,,249.93,6
Jason Perez,M,B,Open Men,110,Single-ply,TX,USA,237.46,,,,237.46,7
Mike Desrosiers,M,B,Open Men,110,Single-ply,AZ,USA,229.97,,,,229.97,8
Pradeep Tandan,M,B,Open Men,110,Single-ply,,IND,219.99,,,,219.99,9
Carlton James Jr,M,B,Open Men,110,Single-ply,TX,USA,209.88,,,,209.88,10
Scott Hoekstra,M,B,Open Men,117.5,Single-ply,CA,USA,262.4,,,,262.4,1
Joey Murphy,M,B,Open Men,117.5,Single-ply,GA,USA,257.91,,,,257.91,2
Joshua Carter,M,B,Open Men,117.5,Single-ply,MT,USA,239.95,,,,239.95,3
Colin Keohuloa,M,B,Open Men,117.5,Single-ply,HI,USA,164.97,,,,164.97,4
Daniel Reeves,M,B,Open Men,117.5,Single-ply,AZ,USA,,,,,,DQ
Jussi Tuomainen,M,B,Open Men,117.5,Single-ply,,FIN,,,,,,DQ
Marc Villarreal,M,B,Open Men,117.5,Single-ply,TX,USA,,,,,,DQ
Bill Gillespie,M,B,Open Men,125,Single-ply,VA,USA,322.37,,,,322.37,1
Patrick Holloway,M,B,Open Men,125,Single-ply,AZ,USA,304.9,,,,304.9,2
Brandon Bankston,M,B,Open Men,125,Single-ply,LA,USA,287.44,,,,287.44,3
Göran Rosén,M,B,Open Men,125,Single-ply,,SWE,284.95,,,,284.95,4
Jani Ihalainen,M,B,Open Men,125,Single-ply,,FIN,269.89,,,,269.89,5
Harjeet Kumar,M,B,Open Men,125,Single-ply,,IND,219.99,,,,219.99,6
John Erickson,M,B,Open Men,125,Single-ply,OK,USA,,,,,,DQ
Forest Hofer,M,B,Open Men,125,Single-ply,WA,USA,,,,,,DQ
Dave Forstner,M,B,Open Men,140,Single-ply,MI,USA,292.43,,,,292.43,1
Frederick Alexander,M,B,Open Men,140,Single-ply,TX,USA,274.97,,,,274.97,2
Anthony Moye,M,B,Open Men,140,Single-ply,TX,USA,262.4,,,,262.4,3
Jerry Pritchett,M,B,Open Men,140,Single-ply,AZ,USA,234.96,,,,234.96,4
Joe Mickelson,M,B,Open Men,140,Single-ply,WA,USA,227.48,,,,227.48,5
Warren Orr,M,B,Open Men,140,Single-ply,,CAN,204.89,,,,204.89,6
Jeff Peshek,M,B,Open Men,140,Single-ply,OH,USA,,,,,,DQ
Jani Murtomeki,M,B,Open Men,140+,Single-ply,,FIN,364.92,,,,364.92,1
Scott Wesley Jordan,M,B,Open Men,140+,Single-ply,AZ,USA,319.87,,,,319.87,2
Jeffrey Place,M,B,Open Men,140+,Single-ply,OR,USA,294.93,,,,294.93,3
James Greene,M,B,Open Men,140+,Single-ply,MT,USA,199.9,,,,199.9,4
Chane Cline,M,B,Open Men,140+,Single-ply,OH,USA,,,,,,DQ
Dave O' Neill,M,B,Open Men,140+,Single-ply,WA,USA,,,,,,DQ
Nick Lenhart,M,B,Class I Men,67.5,Single-ply,UT,USA,170.46,,,,170.46,1
Michael DeSimone,M,B,Class I Men,67.5,Single-ply,NY,USA,169.96,,,,169.96,2
Eric Nahorniak,M,B,Class I Men,67.5,Single-ply,WA,USA,162.39,,,,162.39,3
Ray Segura,M,B,Class I Men,67.5,Single-ply,WA,USA,137.44,,,,137.44,4
Deron Agaran,M,B,Class I Men,75,Single-ply,HI,USA,192.91,,,,192.91,1
Travis Miller,M,B,Class I Men,75,Single-ply,WI,USA,164.97,,,,164.97,2
Jonas Anderbring,M,B,Class I Men,75,Single-ply,,SWE,154.9,,,,154.9,3
John Petersen,M,B,Class I Men,75,Single-ply,WI,USA,152.41,,,,152.41,4
Fulton White,M,B,Class I Men,75,Single-ply,NV,USA,147.42,,,,147.42,5
Marloe Mosley,M,B,Class I Men,75,Single-ply,TX,USA,137.44,,,,137.44,6
Ben Kammueller,M,B,Class I Men,75,Single-ply,WI,USA,122.47,,,,122.47,7
Brad Biroan,M,B,Class I Men,75,Single-ply,HI,USA,,,,,,DQ
Brian Fisher,M,B,Class I Men,82.5,Single-ply,GA,USA,204.89,,,,204.89,1
Robert Dawidowicz,M,B,Class I Men,82.5,Single-ply,,POL,197.4,,,,197.4,2
Seán Hickey,M,B,Class I Men,82.5,Single-ply,WI,USA,147.42,,,,147.42,3
Charles Farmer,M,B,Class I Men,90,Single-ply,MT,USA,224.98,,,,224.98,1
Fil Dena III,M,B,Class I Men,90,Single-ply,NV,USA,204.89,,,,204.89,2
Ahmed Abukhater,M,B,Class I Men,90,Single-ply,,PLE,204.89,,,,204.89,3
Dennis Sugimoto,M,B,Class I Men,90,Single-ply,WA,USA,204.89,,,,204.89,4
Todd Cossey,M,B,Class I Men,90,Single-ply,HI,USA,199.9,,,,199.9,5
Eric Dowd,M,B,Class I Men,90,Single-ply,WA,USA,190.42,,,,190.42,6
Arthur Nuss,M,B,Class I Men,90,Single-ply,KS,USA,182.43,,,,182.43,7
Rolando Espinoza,M,B,Class I Men,90,Single-ply,TX,USA,164.97,,,,164.97,8
Chris Bos,M,B,Class I Men,90,Single-ply,MI,USA,159.89,,,,159.89,9
Doug Amburgey,M,B,Class I Men,90,Single-ply,OH,USA,112.49,,,,112.49,10
Bob Hill,M,B,Class I Men,90,Single-ply,OR,USA,,,,,,DQ
Dan Simpson,M,B,Class I Men,90,Single-ply,OR,USA,,,,,,DQ
Joe Valtierra,M,B,Class I Men,90,Single-ply,TX,USA,,,,,,DQ
Joseph Adams,M,B,Class I Men,100,Single-ply,UT,USA,227.48,,,,227.48,1
Mike Bazinet,M,B,Class I Men,100,Single-ply,ME,USA,227.48,,,,227.48,2
David Bradshaw,M,B,Class I Men,100,Single-ply,CA,USA,214.87,,,,214.87,3
Paul Scheiffele,M,B,Class I Men,100,Single-ply,AZ,USA,212.37,,,,212.37,4
Hunter Beall,M,B,Class I Men,100,Single-ply,LA,USA,197.4,,,,197.4,5
Steven Petersen,M,B,Class I Men,100,Single-ply,TX,USA,192.41,,,,192.41,6
Ted Kennedy,M,B,Class I Men,110,Single-ply,GA,USA,247.43,,,,247.43,1
Jeff Alvari,M,B,Class I Men,110,Single-ply,UT,USA,242.45,,,,242.45,2
Leonard Pokora,M,B,Class I Men,110,Single-ply,MI,USA,217.5,,,,217.5,3
Brent Nikolaus,M,B,Class I Men,110,Single-ply,WA,USA,192.41,,,,192.41,4
Matt Guernsey,M,B,Class I Men,110,Single-ply,ME,USA,182.43,,,,182.43,5
Nick Galletta,M,B,Class I Men,117.5,Single-ply,CA,USA,252.42,,,,252.42,1
Marc Villarreal,M,B,Class I Men,117.5,Single-ply,TX,USA,250.43,,,,250.43,2
Jesse Garza,M,B,Class I Men,117.5,Single-ply,MI,USA,202.39,,,,202.39,3
Colin Keohuloa,M,B,Class I Men,117.5,Single-ply,HI,USA,164.97,,,,164.97,4
Gene Loss,M,B,Class I Men,117.5,Single-ply,OR,USA,,,,,,DQ
John Rowland,M,B,Class I Men,125,Single-ply,GA,USA,259.91,,,,259.91,1
Brian Vickers,M,B,Class I Men,125,Single-ply,TX,USA,207.38,,,,207.38,2
Robert Speno,M,B,Class I Men,140,Single-ply,CA,USA,239.95,,,,239.95,1
Corey Reuben,M,B,Class I Men,140,Single-ply,MN,USA,218,,,,218,2
Jake Kaio,M,B,Class I Men,140,Single-ply,HI,USA,184.93,,,,184.93,3
Rich Lopez,M,B,Class I Men,140+,Single-ply,CA,USA,272.47,,,,272.47,1
Greg Guernsey,M,B,Class I Men,140+,Single-ply,ME,USA,244.94,,,,244.94,2
Garrett Guernsey,M,B,Class I Men,140+,Single-ply,ME,USA,214.87,,,,214.87,3
Clay Tawzer,M,B,Class I Men,140+,Single-ply,CA,USA,194.91,,,,194.91,4
Leo Contreras,M,B,Class I Men,140+,Single-ply,CA,USA,182.43,,,,182.43,5
Keith Sayles,M,B,Class I Men,140+,Single-ply,TX,USA,144.92,,,,144.92,6
Vilmar Oliveira,M,B,Disabled Men,82.5,Single-ply,,BRA,139.93,,,,139.93,1
Steve Baker,M,B,Disabled Men,82.5,Single-ply,,CAN,62.46,,,,62.46,2
Reid Solar,M,B,Disabled Men,90,Single-ply,AZ,USA,164.97,,,,164.97,1
Mike Bonifield,M,B,Disabled Men,117.5,Single-ply,CA,USA,,,,,,DQ
Phillip Turner,M,B,Special Olympian Men,82.5,Single-ply,TX,USA,82.42,,,,82.42,1
Brian Steinmetz,M,B,Special Olympian Men,82.5,Single-ply,WA,USA,62.46,,,,62.46,2
Brady Tanner,M,B,Special Olympian Men,110,Single-ply,KS,USA,184.93,,,,184.93,1
Joshua Ross,M,B,Special Olympian Men,110,Single-ply,TX,USA,104.87,,,,104.87,2
Chace Akina,M,B,Teen 12-13 Men,52,Single-ply,HI,USA,67.95,68.45,,,67.95,1
Dustin Pfeiffer,M,B,Teen 12-13 Men,82.5,Single-ply,OH,USA,69.94,,,,69.94,1
Dylan Sites,M,B,Teen 14-15 Men,56,Single-ply,OR,USA,79.92,,,,79.92,1
Jared Hockaday,M,B,Teen 14-15 Men,75,Single-ply,MT,USA,110,,,,110,1
Hunter Pooser,M,B,Teen 14-15 Men,110,Single-ply,AL,USA,139.93,,,,139.93,1
Ryan Reppond,M,B,Teen 16-17 Men,60,Single-ply,CA,USA,84.91,,,,84.91,1
Donovan Turner,M,B,Teen 16-17 Men,67.5,Single-ply,CA,USA,99.88,,,,99.88,1
Andrew McDonald,M,B,Teen 16-17 Men,67.5,Single-ply,WA,USA,72.44,,,,72.44,2
Bradley Bennett,M,B,Teen 16-17 Men,75,Single-ply,OH,USA,132.45,,,,132.45,1
Robert Williams,M,B,Teen 16-17 Men,75,Single-ply,CA,USA,87.41,,,,87.41,2
Casey Rosario,M,B,Teen 16-17 Men,82.5,Single-ply,HI,USA,164.97,,,,164.97,1
Judd Sato III,M,B,Teen 16-17 Men,82.5,Single-ply,HI,USA,164.97,,,,164.97,2
Jake Garbush,M,B,Teen 16-17 Men,90,Single-ply,WA,USA,154.9,,,,154.9,1
Chad Gaytan,M,B,Teen 16-17 Men,90,Single-ply,CA,USA,92.4,,,,92.4,2
Miles Scott,M,B,Teen 16-17 Men,100,Single-ply,TX,USA,192.91,,,,192.91,1
Amritpal Saran,M,B,Teen 16-17 Men,100,Single-ply,CA,USA,177.94,,,,177.94,2
Kekoa Biroan,M,B,Teen 16-17 Men,100,Single-ply,HI,USA,154.9,,,,154.9,3
Billy Henry,M,B,Teen 16-17 Men,110,Single-ply,WA,USA,95.39,,,,95.39,1
Caleb O' Donald,M,B,Teen 16-17 Men,117.5,Single-ply,ME,USA,169.96,174.95,,,169.96,1
Tohora Harawira,M,B,Teen 16-17 Men,140+,Single-ply,,NZL,144.92,,,,144.92,1
Dustin Hanson,M,B,Teen 18-19 Men,60,Single-ply,MT,USA,159.89,,,,159.89,1
Miguel Jaurigui,M,B,Teen 18-19 Men,60,Single-ply,TX,USA,102.38,,,,102.38,2
Logan Anglewicz,M,B,Teen 18-19 Men,60,Single-ply,OH,USA,39.92,,,,39.92,3
Travis Miller,M,B,Teen 18-19 Men,75,Single-ply,WI,USA,160.39,,,,160.39,1
Justin Clay,M,B,Teen 18-19 Men,75,Single-ply,MI,USA,127.46,,,,127.46,2
Donnie Miskinis,M,B,Teen 18-19 Men,75,Single-ply,OH,USA,104.87,,,,104.87,3
Scott Johnson,M,B,Teen 18-19 Men,75,Single-ply,CA,USA,97.39,,,,97.39,4
A. J. Mangum,M,B,Teen 18-19 Men,82.5,Single-ply,TX,USA,114.99,,,,114.99,1
Nick Wilks,M,B,Teen 18-19 Men,82.5,Single-ply,WA,USA,54.98,,,,54.98,2
Ricardo Contreras Jr,M,B,Teen 18-19 Men,82.5,Single-ply,TX,USA,,,,,,DQ
Bobby Whiting,M,B,Teen 18-19 Men,82.5,Single-ply,NY,USA,,,,,,DQ
Arthur Nuss,M,B,Teen 18-19 Men,90,Single-ply,KS,USA,182.43,,,,182.43,1
Raymond Garcia,M,B,Teen 18-19 Men,90,Single-ply,CA,USA,119.98,,,,119.98,2
Hunter Beall,M,B,Teen 18-19 Men,100,Single-ply,LA,USA,197.4,,,,197.4,1
Matthew Ommen,M,B,Teen 18-19 Men,100,Single-ply,AZ,USA,,,,,,DQ
Darrin Dunham,M,B,Teen 18-19 Men,110,Single-ply,OR,USA,227.48,,,,227.48,1
Frank Ginez III,M,B,Teen 18-19 Men,140+,Single-ply,TX,USA,237.46,252.42,,,237.46,1
Scott Galeck,M,B,Junior 20-25 Men,56,Single-ply,CA,USA,92.4,,,,92.4,1
Casey Bochonowicz,M,B,Junior 20-25 Men,60,Single-ply,OH,USA,82.42,,,,82.42,1
Nick Lenhart,M,B,Junior 20-25 Men,67.5,Single-ply,UT,USA,170.46,,,,170.46,1
Michael DeSimone,M,B,Junior 20-25 Men,67.5,Single-ply,NY,USA,169.96,,,,169.96,2
Ray Segura,M,B,Junior 20-25 Men,67.5,Single-ply,WA,USA,137.44,,,,137.44,3
Jed Hussein,M,B,Junior 20-25 Men,75,Single-ply,TX,USA,182.43,,,,182.43,1
Mark Camacho,M,B,Junior 20-25 Men,75,Single-ply,TX,USA,167.47,,,,167.47,2
Michael Mayhall,M,B,Junior 20-25 Men,75,Single-ply,AL,USA,165.47,,,,165.47,3
Joshua Gonnering,M,B,Junior 20-25 Men,82.5,Single-ply,AL,USA,142.43,,,,142.43,1
Sam Harder,M,B,Junior 20-25 Men,82.5,Single-ply,OR,USA,124.96,,,,124.96,2
Eric Dowd,M,B,Junior 20-25 Men,90,Single-ply,WA,USA,190.42,,,,190.42,1
Shane Oakley,M,B,Junior 20-25 Men,90,Single-ply,CO,USA,139.93,,,,139.93,2
Rob Midson,M,B,Junior 20-25 Men,90,Single-ply,CA,USA,132.45,,,,132.45,3
Trey Jewett,M,B,Junior 20-25 Men,100,Single-ply,TX,USA,320.37,,,,320.37,1
Weston Zunker,M,B,Junior 20-25 Men,100,Single-ply,TX,USA,217.5,,,,217.5,2
Gabriel Perkins,M,B,Junior 20-25 Men,100,Single-ply,TX,USA,197.4,,,,197.4,3
Kyle Herzik,M,B,Junior 20-25 Men,100,Single-ply,NV,USA,159.89,,,,159.89,4
Adam Contreras,M,B,Junior 20-25 Men,100,Single-ply,CA,USA,147.42,,,,147.42,5
David Barth,M,B,Junior 20-25 Men,100,Single-ply,PA,USA,,,,,,DQ
Jason Perez,M,B,Junior 20-25 Men,110,Single-ply,TX,USA,237.46,,,,237.46,1
Ben Smith,M,B,Junior 20-25 Men,110,Single-ply,ME,USA,184.93,,,,184.93,2
Chris Stimac,M,B,Junior 20-25 Men,110,Single-ply,OR,USA,,,,,,DQ
Ben Foreman,M,B,Junior 20-25 Men,117.5,Single-ply,,CAN,142.43,,,,142.43,1
Fred Riccardi,M,B,Junior 20-25 Men,117.5,Single-ply,NY,USA,67.45,,,,67.45,2
Daniel Reeves,M,B,Junior 20-25 Men,117.5,Single-ply,AZ,USA,,,,,,DQ
Chris Owens,M,B,Junior 20-25 Men,125,Single-ply,TX,USA,257.41,,,,257.41,1
Brendan Luedtke,M,B,Junior 20-25 Men,125,Single-ply,NV,USA,217.5,,,,217.5,2
Anthony Moye,M,B,Junior 20-25 Men,140,Single-ply,TX,USA,262.4,,,,262.4,1
Clay Tawzer,M,B,Junior 20-25 Men,140+,Single-ply,CA,USA,194.91,,,,194.91,1
David R Smith,M,B,Submaster 33-39 Men,67.5,Single-ply,TX,USA,197.4,,,,197.4,1
Kim Päivöke,M,B,Submaster 33-39 Men,82.5,Single-ply,,FIN,229.97,,,,229.97,1
Tomi Vikla,M,B,Submaster 33-39 Men,82.5,Single-ply,,FIN,229.97,,,,229.97,2
Robert Dawidowicz,M,B,Submaster 33-39 Men,82.5,Single-ply,,POL,197.4,,,,197.4,3
Brian Fisher,M,B,Submaster 33-39 Men,82.5,Single-ply,GA,USA,189.92,,,,189.92,4
Jason Carson,M,B,Submaster 33-39 Men,90,Single-ply,IL,USA,247.43,,,,247.43,1
Charles Farmer,M,B,Submaster 33-39 Men,90,Single-ply,MT,USA,224.98,,,,224.98,2
Matthew Ogurek,M,B,Submaster 33-39 Men,90,Single-ply,MI,USA,209.88,,,,209.88,3
Thomas Ponzio,M,B,Submaster 33-39 Men,90,Single-ply,UT,USA,205.39,,,,205.39,4
Mark Arnold,M,B,Submaster 33-39 Men,100,Single-ply,GA,USA,249.93,,,,249.93,1
Coby Washburn,M,B,Submaster 33-39 Men,100,Single-ply,TX,USA,239.95,,,,239.95,2
John De Luca,M,B,Submaster 33-39 Men,100,Single-ply,CA,USA,214.87,,,,214.87,3
Brian Fahrenfeld,M,B,Submaster 33-39 Men,100,Single-ply,NY,USA,154.9,,,,154.9,4
Joseph Gerald Pablo,M,B,Submaster 33-39 Men,100,Single-ply,MT,USA,154.9,,,,154.9,5
Ed Barnes,M,B,Submaster 33-39 Men,110,Single-ply,CA,USA,259.91,,,,259.91,1
Todd Norman,M,B,Submaster 33-39 Men,110,Single-ply,OH,USA,249.93,,,,249.93,2
Mike Desrosiers,M,B,Submaster 33-39 Men,110,Single-ply,AZ,USA,222.49,,,,222.49,3
Peter Tumminello,M,B,Submaster 33-39 Men,110,Single-ply,CA,USA,182.43,,,,182.43,4
Ike Pablo,M,B,Submaster 33-39 Men,110,Single-ply,MT,USA,144.92,,,,144.92,5
Rodric Thomas,M,B,Submaster 33-39 Men,110,Single-ply,GA,USA,,,,,,DQ
Joey Murphy,M,B,Submaster 33-39 Men,117.5,Single-ply,GA,USA,184.93,,,,184.93,1
Sam Aumavae,M,B,Submaster 33-39 Men,125,Single-ply,OR,USA,327.49,332.48,,,327.49,1
David Lewis,M,B,Submaster 33-39 Men,125,Single-ply,IL,USA,319.87,,,,319.87,2
Brandon Bankston,M,B,Submaster 33-39 Men,125,Single-ply,LA,USA,287.44,,,,287.44,3
John Rowland,M,B,Submaster 33-39 Men,125,Single-ply,GA,USA,254.92,,,,254.92,4
Eric Poitevien,M,B,Submaster 33-39 Men,125,Single-ply,NY,USA,147.42,,,,147.42,5
Dave Forstner,M,B,Submaster 33-39 Men,140,Single-ply,MI,USA,292.43,,,,292.43,1
Guy Powell,M,B,Submaster 33-39 Men,140,Single-ply,WI,USA,242.45,,,,242.45,2
Robert Speno,M,B,Submaster 33-39 Men,140,Single-ply,CA,USA,239.95,,,,239.95,3
Corey Reuben,M,B,Submaster 33-39 Men,140,Single-ply,MN,USA,207.38,,,,207.38,4
Jake Kaio,M,B,Submaster 33-39 Men,140,Single-ply,HI,USA,,,,,,DQ
Scott Wesley Jordan,M,B,Submaster 33-39 Men,140+,Single-ply,AZ,USA,319.87,,,,319.87,1
Aaron Wolfe,M,B,Submaster 33-39 Men,140+,Single-ply,HI,USA,254.92,,,,254.92,2
Garrett Guernsey,M,B,Submaster 33-39 Men,140+,Single-ply,ME,USA,214.87,,,,214.87,3
George Nabeshima,M,B,Master 40-46 Men,67.5,Single-ply,HI,USA,137.44,,,,137.44,1
Tim Aldag,M,B,Master 40-46 Men,67.5,Single-ply,WI,USA,130.45,,,,130.45,2
Deron Agaran,M,B,Master 40-46 Men,75,Single-ply,HI,USA,192.91,,,,192.91,1
Rick King,M,B,Master 40-46 Men,75,Single-ply,OR,USA,172.95,,,,172.95,2
Kenny Lyons,M,B,Master 40-46 Men,75,Single-ply,ID,USA,154.9,,,,154.9,3
Robert Sunshine,M,B,Master 40-46 Men,75,Single-ply,NY,USA,132.45,,,,132.45,4
Keith Cunningham,M,B,Master 40-46 Men,75,Single-ply,WA,USA,127.46,,,,127.46,5
Keith Daniels,M,B,Master 40-46 Men,82.5,Single-ply,HI,USA,230.47,,,,230.47,1
Sakari Selkäinaho,M,B,Master 40-46 Men,82.5,Single-ply,,FIN,212.37,,,,212.37,2
Darren Carr,M,B,Master 40-46 Men,82.5,Single-ply,UT,USA,204.89,,,,204.89,3
Jeff Woods,M,B,Master 40-46 Men,82.5,Single-ply,OH,USA,204.89,,,,204.89,4
Warren Fahrenfeld,M,B,Master 40-46 Men,82.5,Single-ply,NJ,USA,114.99,,,,114.99,5
Dennis Sugimoto,M,B,Master 40-46 Men,90,Single-ply,WA,USA,204.89,,,,204.89,1
Todd Cossey,M,B,Master 40-46 Men,90,Single-ply,HI,USA,199.9,,,,199.9,2
Rolando Espinoza,M,B,Master 40-46 Men,90,Single-ply,TX,USA,164.97,,,,164.97,3
Butch Zemaitis,M,B,Master 40-46 Men,90,Single-ply,PA,USA,,,,,,DQ
Kenneth Millrany,M,B,Master 40-46 Men,100,Single-ply,TN,USA,287.44,,,,287.44,1
Bryon Brubaker,M,B,Master 40-46 Men,100,Single-ply,CA,USA,257.41,,,,257.41,2
Mike Bazinet,M,B,Master 40-46 Men,100,Single-ply,ME,USA,227.48,,,,227.48,3
Juha Pukkila,M,B,Master 40-46 Men,100,Single-ply,,FIN,219.99,,,,219.99,4
Mike DeGennaro,M,B,Master 40-46 Men,100,Single-ply,NV,USA,194.91,,,,194.91,5
Steven Petersen,M,B,Master 40-46 Men,100,Single-ply,TX,USA,192.41,,,,192.41,6
David Fischer,M,B,Master 40-46 Men,110,Single-ply,GA,USA,272.47,,,,272.47,1
Dennis Lowry,M,B,Master 40-46 Men,110,Single-ply,CA,USA,254.92,,,,254.92,2
John Bowers,M,B,Master 40-46 Men,110,Single-ply,WA,USA,249.93,,,,249.93,3
Jeff Alvari,M,B,Master 40-46 Men,110,Single-ply,UT,USA,242.45,,,,242.45,4
Chris Russo,M,B,Master 40-46 Men,110,Single-ply,NJ,USA,212.37,,,,212.37,5
Donnie Hamblin,M,B,Master 40-46 Men,110,Single-ply,AZ,USA,202.39,,,,202.39,6
Matt Guernsey,M,B,Master 40-46 Men,110,Single-ply,ME,USA,182.43,,,,182.43,7
Frank Wakakuwa,M,B,Master 40-46 Men,110,Single-ply,HI,USA,,,,,,DQ
Patrick Parnell,M,B,Master 40-46 Men,117.5,Single-ply,TX,USA,319.87,,,,319.87,1
Scott Hoekstra,M,B,Master 40-46 Men,117.5,Single-ply,CA,USA,262.4,,,,262.4,2
Tajinder Singh,M,B,Master 40-46 Men,117.5,Single-ply,,IND,169.96,,,,169.96,3
Eric Doublin,M,B,Master 40-46 Men,125,Single-ply,TX,USA,307.4,,,,307.4,1
Patrick Holloway,M,B,Master 40-46 Men,125,Single-ply,AZ,USA,304.9,,,,304.9,2
Robert Lincoln Jr,M,B,Master 40-46 Men,125,Single-ply,CA,USA,304.9,,,,304.9,3
Gary Gulseth,M,B,Master 40-46 Men,125,Single-ply,WI,USA,272.47,,,,272.47,4
Göran Rosén,M,B,Master 40-46 Men,125,Single-ply,,SWE,269.89,,,,269.89,5
Eddie Stockbridge,M,B,Master 40-46 Men,125,Single-ply,CA,USA,267.39,,,,267.39,6
Boyd Hurley,M,B,Master 40-46 Men,125,Single-ply,HI,USA,214.87,,,,214.87,7
Joe Garcia,M,B,Master 40-46 Men,125,Single-ply,OR,USA,182.43,,,,182.43,8
Jason Laskowski,M,B,Master 40-46 Men,125,Single-ply,TX,USA,,,,,,DQ
John Hudson,M,B,Master 40-46 Men,140,Single-ply,TX,USA,317.88,,,,317.88,1
Warren Orr,M,B,Master 40-46 Men,140,Single-ply,,CAN,204.89,,,,204.89,2
Jeff Peshek,M,B,Master 40-46 Men,140,Single-ply,OH,USA,,,,,,DQ
Ken Overbey,M,B,Master 40-46 Men,140+,Single-ply,AL,USA,319.87,,,,319.87,1
Jeffrey Place,M,B,Master 40-46 Men,140+,Single-ply,OR,USA,294.93,,,,294.93,2
Greg Guernsey,M,B,Master 40-46 Men,140+,Single-ply,ME,USA,244.94,,,,244.94,3
Steve Mata,M,B,Master 40-46 Men,140+,Single-ply,TX,USA,232.47,,,,232.47,4
Thomas McKinney,M,B,Master 40-46 Men,140+,Single-ply,TX,USA,,,,,,DQ
Dave Aldag,M,B,Master 47-53 Men,67.5,Single-ply,WI,USA,,,,,,DQ
Fulton White,M,B,Master 47-53 Men,75,Single-ply,NV,USA,147.42,,,,147.42,3
Dave Constantineau,M,B,Master 47-53 Men,75,Single-ply,WI,USA,147.42,,,,147.42,4
Marloe Mosley,M,B,Master 47-53 Men,75,Single-ply,TX,USA,137.44,,,,137.44,5
Sheldon Weingust,M,B,Master 47-53 Men,75,Single-ply,TX,USA,,,,,,DQ
Mark Lo,M,B,Master 47-53 Men,82.5,Single-ply,HI,USA,182.43,,,,182.43,1
Paul Janoff,M,B,Master 47-53 Men,82.5,Single-ply,CA,USA,167.47,,,,167.47,3
Leamon Woodley,M,B,Master 47-53 Men,82.5,Single-ply,WA,USA,164.97,,,,164.97,5
David Brekke,M,B,Master 47-53 Men,82.5,Single-ply,CA,USA,134.94,,,,134.94,8
Dale Smith,M,B,Master 47-53 Men,82.5,Single-ply,WI,USA,89.9,,,,89.9,10
Mike Berteaux,M,B,Master 47-53 Men,90,Single-ply,CO,USA,215.37,,,,215.37,1
Fil Dena III,M,B,Master 47-53 Men,90,Single-ply,NV,USA,204.89,,,,204.89,2
William Stirling,M,B,Master 47-53 Men,90,Single-ply,,CAN,167.47,174.95,,,167.47,4
Reid Solar,M,B,Master 47-53 Men,90,Single-ply,AZ,USA,164.97,,,,164.97,6
Rocky Mc Cullough,M,B,Master 47-53 Men,90,Single-ply,TX,USA,159.89,,,,159.89,7
Darrell Horn,M,B,Master 47-53 Men,90,Single-ply,MI,USA,154.9,,,,154.9,8
Tim Epting,M,B,Master 47-53 Men,90,Single-ply,TX,USA,110,,,,110,10
Alvin Yearby,M,B,Master 47-53 Men,100,Single-ply,FL,USA,259.91,,,,259.91,1
Terry Baldwin,M,B,Master 47-53 Men,100,Single-ply,MT,USA,232.47,,,,232.47,2
Robert Harris,M,B,Master 47-53 Men,100,Single-ply,NV,USA,209.88,,,,209.88,3
Steven Hardesty,M,B,Master 47-53 Men,100,Single-ply,CO,USA,162.39,,,,162.39,6
Jim Curley,M,B,Master 47-53 Men,100,Single-ply,CO,USA,,,,,,DQ
Ed Macauley,M,B,Master 47-53 Men,110,Single-ply,OR,USA,244.94,,,,244.94,1
Don Rygh,M,B,Master 47-53 Men,110,Single-ply,MN,USA,242.45,,,,242.45,2
Samuel Schultz,M,B,Master 47-53 Men,110,Single-ply,OR,USA,212.37,,,,212.37,4
Gary Stevens,M,B,Master 47-53 Men,110,Single-ply,WY,USA,194.91,,,,194.91,5
Mark Stanford,M,B,Master 47-53 Men,117.5,Single-ply,AZ,USA,250.43,,,,250.43,1
Ron L'Huillier,M,B,Master 47-53 Men,117.5,Single-ply,MI,USA,227.48,,,,227.48,3
Rob Carbo,M,B,Master 47-53 Men,117.5,Single-ply,CA,USA,227.48,,,,227.48,4
Phillip Arroyo,M,B,Master 47-53 Men,117.5,Single-ply,WA,USA,204.89,,,,204.89,5
Rich Ludlam,M,B,Master 47-53 Men,117.5,Single-ply,CA,USA,,,,,,DQ
Bill Gillespie,M,B,Master 47-53 Men,125,Single-ply,VA,USA,322.37,,,,322.37,1
Forest Hofer,M,B,Master 47-53 Men,125,Single-ply,WA,USA,,,,,,DQ
Richard Lukland,M,B,Master 47-53 Men,140,Single-ply,OH,USA,242.45,,,,242.45,2
Joe Mickelson,M,B,Master 47-53 Men,140,Single-ply,WA,USA,227.48,,,,227.48,3
Wayne Kaaloa,M,B,Master 47-53 Men,140,Single-ply,HI,USA,207.38,,,,207.38,4
Blair Fisher,M,B,Master 47-53 Men,140,Single-ply,,CAN,159.89,,,,159.89,5
Roger Ryan,M,B,Master 47-53 Men,140,Single-ply,IL,USA,,,,,,DQ
James Mersberg,M,B,Master 47-53 Men,140+,Single-ply,HI,USA,277.46,,,,277.46,1
Gary Gertner,M,B,Master 47-53 Men,140+,Single-ply,CO,USA,261.41,,,,261.41,2
Keith Sayles,M,B,Master 47-53 Men,140+,Single-ply,TX,USA,144.92,,,,144.92,4
Dennis Schultz,M,B,Master 47-53 Men,140+,Single-ply,CA,USA,,,,,,DQ
Frank Principati,M,B,Master 47-53 Men,56,Single-ply,PA,USA,49.9,,,,49.9,1
Gary Bobrovitz,M,B,Master 47-53 Men,60,Single-ply,,CAN,132.95,134.94,,,132.95,1
Alfredo Evangelista,M,B,Master 47-53 Men,67.5,Single-ply,OR,USA,187.42,,,,187.42,1
Gary Miller #2,M,B,Master 47-53 Men,67.5,Single-ply,NV,USA,152.41,157.4,,,152.41,2
Al Nebo,M,B,Master 47-53 Men,75,Single-ply,CA,USA,164.97,,,,164.97,1
Perry Plush,M,B,Master 47-53 Men,75,Single-ply,WA,USA,149.91,,,,149.91,2
Ashok Sharma,M,B,Master 47-53 Men,75,Single-ply,,IND,114.99,,,,114.99,6
Jody Fjelstad,M,B,Master 47-53 Men,82.5,Single-ply,MN,USA,169.96,,,,169.96,2
Tom Gonnering,M,B,Master 47-53 Men,82.5,Single-ply,AL,USA,165.97,,,,165.97,4
Gene King,M,B,Master 47-53 Men,82.5,Single-ply,OR,USA,157.9,,,,157.9,6
Eric Ansberry,M,B,Master 47-53 Men,82.5,Single-ply,CA,USA,139.93,,,,139.93,7
Flavio Da Costa Baptista,M,B,Master 47-53 Men,82.5,Single-ply,,BRA,99.88,,,,99.88,9
Brian Kline,M,B,Master 47-53 Men,90,Single-ply,TX,USA,174.95,,,,174.95,3
Rudy Kadlub,M,B,Master 47-53 Men,90,Single-ply,OR,USA,167.47,,,,167.47,5
Joe Pablo,M,B,Master 47-53 Men,90,Single-ply,MT,USA,142.43,,,,142.43,9
Kenneth Kirk,M,B,Master 47-53 Men,90,Single-ply,CA,USA,99.88,,,,99.88,11
Ron Jones,M,B,Master 47-53 Men,90,Single-ply,AL,USA,,,,,,DQ
John Phillips,M,B,Master 47-53 Men,100,Single-ply,OH,USA,169.96,,,,169.96,4
Jon Wolbers,M,B,Master 47-53 Men,100,Single-ply,,CAN,164.97,,,,164.97,5
Leonard Pokora,M,B,Master 47-53 Men,110,Single-ply,MI,USA,214.87,,,,214.87,3
Kenneth Tawzer,M,B,Master 47-53 Men,110,Single-ply,CA,USA,182.43,,,,182.43,6
David Wolf,M,B,Master 47-53 Men,110,Single-ply,WY,USA,164.97,,,,164.97,7
Thomas Wright,M,B,Master 47-53 Men,110,Single-ply,KS,USA,110,,,,110,8
Willard Crossen Jr,M,B,Master 47-53 Men,117.5,Single-ply,WA,USA,249.93,,,,249.93,2
Gilbert Anderson,M,B,Master 47-53 Men,117.5,Single-ply,UT,USA,199.9,,,,199.9,6
Jim Graham,M,B,Master 47-53 Men,117.5,Single-ply,CA,USA,159.89,,,,159.89,7
Sam Pecktol,M,B,Master 47-53 Men,125,Single-ply,OR,USA,197.4,,,,197.4,2
Bruce Sabin,M,B,Master 47-53 Men,140,Single-ply,CA,USA,249.93,,,,249.93,1
Jeff Fahrenbruch,M,B,Master 47-53 Men,140,Single-ply,AZ,USA,,,,,,DQ
Leo Contreras,M,B,Master 47-53 Men,140+,Single-ply,CA,USA,182.43,,,,182.43,3
Bryan Yager,M,B,Master 61-67 Men,60,Single-ply,CA,USA,114.99,,,,114.99,1
Lee Lichtle,M,B,Master 61-67 Men,75,Single-ply,FL,USA,142.43,,,,142.43,1
Stefan Lemire,M,B,Master 61-67 Men,75,Single-ply,UT,USA,127.46,,,,127.46,2
Moses Timbal,M,B,Master 61-67 Men,75,Single-ply,HI,USA,110,,,,110,3
Michael Minietta,M,B,Master 61-67 Men,82.5,Single-ply,NV,USA,152.91,,,,152.91,1
Gary Witzel,M,B,Master 61-67 Men,82.5,Single-ply,WA,USA,114.99,,,,114.99,2
Arnold Pereza,M,B,Master 61-67 Men,82.5,Single-ply,HI,USA,107.37,,,,107.37,3
Dan Swift,M,B,Master 61-67 Men,90,Single-ply,IL,USA,209.88,,,,209.88,1
Alfred Franke,M,B,Master 61-67 Men,90,Single-ply,NV,USA,144.92,,,,144.92,2
James Rouse,M,B,Master 61-67 Men,90,Single-ply,IL,USA,144.92,,,,144.92,3
Bob Hill,M,B,Master 61-67 Men,90,Single-ply,OR,USA,,,,,,DQ
Vince Breaux,M,B,Master 61-67 Men,100,Single-ply,LA,USA,214.87,221.49,,,214.87,1
Robert Urrea,M,B,Master 61-67 Men,100,Single-ply,CA,USA,142.43,,,,142.43,2
Antonio Suhuba-Baruti,M,B,Master 61-67 Men,100,Single-ply,MI,USA,142.43,,,,142.43,3
Bob Evans #1,M,B,Master 61-67 Men,110,Single-ply,CA,USA,198.4,,,,198.4,1
Daniel Smith III,M,B,Master 61-67 Men,110,Single-ply,CA,USA,187.42,,,,187.42,2
Howard Garris,M,B,Master 61-67 Men,110,Single-ply,CA,USA,139.93,,,,139.93,3
Robert C. Lincoln,M,B,Master 61-67 Men,117.5,Single-ply,CA,USA,219.99,,,,219.99,1
Ron Hood,M,B,Master 61-67 Men,125,Single-ply,OK,USA,229.97,,,,229.97,1
Ed Acey,M,B,Master 61-67 Men,125,Single-ply,UT,USA,,,,,,DQ
Robert O Smith,M,B,Master 61-67 Men,140,Single-ply,,CAN,244.94,,,,244.94,1
Doug Knapp,M,B,Master 61-67 Men,140,Single-ply,CA,USA,179.94,,,,179.94,2
Joe McDermott,M,B,Master 68-74 Men,75,Single-ply,FL,USA,142.43,,,,142.43,1
Ron Goodman,M,B,Master 68-74 Men,75,Single-ply,CA,USA,104.87,,,,104.87,2
Arlindo da Silva,M,B,Master 68-74 Men,75,Single-ply,,BRA,87.41,,,,87.41,3
Rudy Lozano,M,B,Master 68-74 Men,82.5,Single-ply,CA,USA,159.89,164.97,,,159.89,1
Dan Martin,M,B,Master 68-74 Men,82.5,Single-ply,NV,USA,139.93,,,,139.93,2
Charles Vause,M,B,Master 68-74 Men,82.5,Single-ply,HI,USA,97.39,,,,97.39,3
Larry Joiner,M,B,Master 68-74 Men,82.5,Single-ply,CA,USA,84.91,,,,84.91,4
William Prince,M,B,Master 68-74 Men,90,Single-ply,NV,USA,137.44,,,,137.44,1
Tom O'Keefe,M,B,Master 68-74 Men,90,Single-ply,CO,USA,104.87,,,,104.87,2
Jerry Gladson,M,B,Master 68-74 Men,90,Single-ply,WA,USA,,,,,,DQ
Harold Smith,M,B,Master 68-74 Men,100,Single-ply,MT,USA,162.39,,,,162.39,1
Roger Kunz,M,B,Master 68-74 Men,100,Single-ply,CA,USA,126.46,,,,126.46,2
John Herbein,M,B,Master 68-74 Men,100,Single-ply,PA,USA,122.47,,,,122.47,3
Skip Sandberg,M,B,Master 68-74 Men,117.5,Single-ply,WA,USA,197.4,,,,197.4,1
Bob Kehl,M,B,Master 68-74 Men,125,Single-ply,CA,USA,219.99,,,,219.99,1
Robert Cortes,M,B,Master 75-79 Men,75,Single-ply,CA,USA,104.87,,,,104.87,1
Leo Honkala,M,B,Master 75-79 Men,75,Single-ply,,SWE,49.9,,,,49.9,2
Richard Simon,M,B,Master 75-79 Men,82.5,Single-ply,CA,USA,112.49,,,,112.49,1
Nixon Munly,M,B,Master 75-79 Men,82.5,Single-ply,OR,USA,82.42,,,,82.42,2
Nick Di Liddo,M,B,Master 75-79 Men,90,Single-ply,CA,USA,122.47,,,,122.47,1
Russell Combest,M,B,Master 75-79 Men,100,Single-ply,OH,USA,124.96,,,,124.96,1
Robert Fornachon,M,B,Master 80-84 Men,67.5,Single-ply,CA,USA,87.41,,,,87.41,1
Arthur Whinston,M,B,Master 80-84 Men,67.5,Single-ply,OR,USA,39.92,,,,39.92,2
Jack Ford,M,B,Master 80-84 Men,75,Single-ply,AZ,USA,69.94,,,,69.94,1
Willard Crossen III,M,B,Law-Fire Open Men,75,Single-ply,WA,USA,197.4,,,,197.4,1
Rob Hawkes,M,B,Law-Fire Open Men,82.5,Single-ply,AZ,USA,162.39,,,,162.39,1
Devin Tallerico,M,B,Law-Fire Open Men,110,Single-ply,CA,USA,179.94,,,,179.94,1
Jeffrey Begue,M,B,Law-Fire Open Men,117.5,Single-ply,OH,USA,276.46,,,,276.46,1
Brian Vickers,M,B,Law-Fire Open Men,125,Single-ply,TX,USA,207.38,,,,207.38,1
Marcus Austin,M,B,Law-Fire Open Men,140,Single-ply,OK,USA,229.97,,,,229.97,1
Wayne Watts,M,B,Law-Fire Open Men,140+,Single-ply,GA,USA,324.86,,,,324.86,1
Chane Cline,M,B,Law-Fire Open Men,140+,Single-ply,OH,USA,,,,,,DQ
Alfred Jackson,M,B,Law-Fire Submaster Men,82.5,Single-ply,WA,USA,192.41,,,,192.41,1
John De Luca,M,B,Law-Fire Submaster Men,100,Single-ply,CA,USA,227.98,,,,227.98,1
Barran Stone,M,B,Law-Fire Submaster Men,100,Single-ply,TX,USA,162.39,,,,162.39,2
Devin Tallerico,M,B,Law-Fire Submaster Men,110,Single-ply,CA,USA,179.94,,,,179.94,1
Jeffrey Begue,M,B,Law-Fire Submaster Men,117.5,Single-ply,OH,USA,276.46,,,,276.46,1
Marcus Austin,M,B,Law-Fire Submaster Men,140,Single-ply,OK,USA,229.97,,,,229.97,1
Keoni Reich,M,B,Law-Fire Submaster Men,140+,Single-ply,HI,USA,249.93,,,,249.93,1
Aaron Wolfe,M,B,Law-Fire Submaster Men,140+,Single-ply,HI,USA,227.48,,,,227.48,2
Darren Carr,M,B,Law-Fire 40-47 Men,82.5,Single-ply,UT,USA,204.89,,,,204.89,1
Steven Hardesty,M,B,Law-Fire 40-47 Men,100,Single-ply,CO,USA,162.39,,,,162.39,1
Frank Wakakuwa,M,B,Law-Fire 40-47 Men,110,Single-ply,HI,USA,272.97,,,,272.97,1
Dennis Lowry,M,B,Law-Fire 40-47 Men,110,Single-ply,CA,USA,254.92,,,,254.92,2
David Fischer,M,B,Law-Fire 40-47 Men,110,Single-ply,GA,USA,249.93,,,,249.93,3
Chris Russo,M,B,Law-Fire 40-47 Men,110,Single-ply,NJ,USA,212.37,,,,212.37,4
Paul Herrmann,M,B,Law-Fire 40-47 Men,110,Single-ply,AZ,USA,177.45,,,,177.45,5
JC Tolle,M,B,Law-Fire 40-47 Men,117.5,Single-ply,CA,USA,252.42,,,,252.42,1
Robert Lincoln Jr,M,B,Law-Fire 40-47 Men,125,Single-ply,CA,USA,317.38,,,,317.38,1
Wayne Watts,M,B,Law-Fire 40-47 Men,140+,Single-ply,GA,USA,324.86,,,,324.86,1
Carl Nishida,M,B,Law-Fire 48-55 Men,82.5,Single-ply,HI,USA,167.47,172.46,,,167.47,1
Mike Berteaux,M,B,Law-Fire 48-55 Men,90,Single-ply,CO,USA,215.37,,,,215.37,1
Jorge Guardado,M,B,Law-Fire 48-55 Men,90,Single-ply,OK,USA,122.47,,,,122.47,2
Greg Alves,M,B,Law-Fire 48-55 Men,100,Single-ply,CA,USA,200.4,,,,200.4,1
William Denniston,M,B,Law-Fire 48-55 Men,100,Single-ply,MI,USA,170.46,,,,170.46,2
Frank Sua,M,B,Law-Fire 48-55 Men,125,Single-ply,WA,USA,242.45,,,,242.45,1
Bruce Sabin,M,B,Law-Fire 48-55 Men,140,Single-ply,CA,USA,249.93,,,,249.93,1
Dennis Schultz,M,B,Law-Fire 48-55 Men,140+,Single-ply,CA,USA,,,,,,DQ
Lee Lichtle,M,B,Law-Fire 56+ Men,75,Single-ply,FL,USA,142.43,,,,142.43,1
James Rouse,M,B,Law-Fire 56+ Men,90,Single-ply,IL,USA,144.92,,,,144.92,1
Daniel Smith III,M,B,Law-Fire 56+ Men,110,Single-ply,CA,USA,182.43,,,,182.43,1
Kenneth Tawzer,M,B,Law-Fire 56+ Men,110,Single-ply,CA,USA,182.43,,,,182.43,2
Robert C. Lincoln,M,B,Law-Fire 56+ Men,117.5,Single-ply,CA,USA,219.99,,,,219.99,1
Betty Lafferty,F,B,Open Women,48,Single-ply,AL,USA,69.94,,,,69.94,1
Ita Pantilat,F,B,Open Women,52,Single-ply,WA,USA,97.39,,,,97.39,1
Yuxin Hao,F,B,Open Women,52,Single-ply,OH,USA,67.45,,,,67.45,2
Laurie Lamp,F,B,Open Women,56,Single-ply,WA,USA,92.4,,,,92.4,1
Dana Snow,F,B,Open Women,56,Single-ply,WA,USA,74.93,,,,74.93,2
Erica Ansberry,F,B,Open Women,56,Single-ply,CA,USA,74.93,,,,74.93,3
Mary Ann Hobbs,F,B,Open Women,60,Single-ply,WA,USA,97.39,,,,97.39,1
Victoria Warshaw,F,B,Open Women,67.5,Single-ply,WA,USA,122.47,,,,122.47,1
Liisa Penttinen,F,B,Open Women,67.5,Single-ply,,FIN,110,,,,110,2
Victoria Real,F,B,Open Women,67.5,Single-ply,CA,USA,97.39,,,,97.39,3
Rachele Unson,F,B,Open Women,67.5,Single-ply,WA,USA,92.4,,,,92.4,4
Laura Thierolf,F,B,Open Women,67.5,Single-ply,WA,USA,89.9,,,,89.9,5
Timmi Simpson,F,B,Open Women,67.5,Single-ply,CA,USA,67.45,,,,67.45,6
Sheri Klocke,F,B,Open Women,75,Single-ply,OR,USA,122.47,,,,122.47,1
Virpi Pukkila,F,B,Open Women,75,Single-ply,,FIN,119.98,,,,119.98,2
Karen Campbell,F,B,Open Women,82.5,Single-ply,ME,USA,172.46,,,,172.46,1
Annie Bowman,F,B,Open Women,82.5,Single-ply,WA,USA,110,,,,110,2
Pat Robey,F,B,Open Women,82.5,Single-ply,WA,USA,99.88,,,,99.88,3
Robyn Peterson,F,B,Open Women,82.5,Single-ply,AZ,USA,62.46,,,,62.46,4
Anna Rosén,F,B,Open Women,90+,Single-ply,,SWE,149.91,,,,149.91,1
Julie Kimoto,F,B,Open Women,90+,Single-ply,HI,USA,112.49,117.48,,,112.49,2
Kayla Sua,F,B,Open Women,90+,Single-ply,WA,USA,99.88,,,,99.88,3
Leanne Ngai,F,B,Special Olympian Women,75,Single-ply,HI,USA,82.42,,,,82.42,1
Alexandra Pecktol,F,B,Teen 12-13 Women,52,Single-ply,OR,USA,44.91,,,,44.91,1
Ali Miskinis,F,B,Teen 12-13 Women,56,Single-ply,OH,USA,32.43,,,,32.43,1
Veera Selkainaho,F,B,Teen 14-15 Women,52,Single-ply,,FIN,49.9,,,,49.9,1
Cheyenne Tavares,F,B,Teen 14-15 Women,44,Single-ply,HI,USA,47.9,,,,47.9,1
Angela Rocha,F,B,Teen 16-17 Women,48,Single-ply,TX,USA,37.42,,,,37.42,1
Lacee Sanchez,F,B,Teen 16-17 Women,56,Single-ply,OK,USA,67.45,,,,67.45,1
Abigail Seale,F,B,Teen 16-17 Women,60,Single-ply,TX,USA,44.91,,,,44.91,1
Rachel Talley,F,B,Teen 16-17 Women,60,Single-ply,WA,USA,39.92,,,,39.92,2
Melissa Garza,F,B,Teen 16-17 Women,60,Single-ply,TX,USA,37.42,,,,37.42,3
Sarah Biddle,F,B,Teen 16-17 Women,67.5,Single-ply,IN,USA,77.43,,,,77.43,1
Angela Barrera,F,B,Teen 16-17 Women,44,Single-ply,TX,USA,34.93,,,,34.93,1
Kayla Sua,F,B,Teen 16-17 Women,90+,Single-ply,WA,USA,104.87,110,,,104.87,1
Jessica Hurley,F,B,Teen 16-17 Women,90+,Single-ply,HI,USA,102.87,107.37,,,102.87,2
Samantha Baty,F,B,Teen 16-17 Women,90+,Single-ply,MI,USA,99.88,,,,99.88,3
Meghan Toomey,F,B,Teen 16-17 Women,90+,Single-ply,CA,USA,97.39,,,,97.39,4
Rebekah Garcia,F,B,Teen 16-17 Women,90+,Single-ply,TX,USA,67.45,,,,67.45,5
Chanel Lewis,F,B,Teen 18-19 Women,48,Single-ply,TX,USA,32.43,,,,32.43,1
Ambyr Reyes,F,B,Teen 18-19 Women,52,Single-ply,UT,USA,92.4,,,,92.4,1
Courtney Gathright,F,B,Teen 18-19 Women,82.5,Single-ply,TX,USA,,,,,,DQ
Hanna Biddle,F,B,Teen 18-19 Women,90,Single-ply,IN,USA,84.91,,,,84.91,1
Katie Sons,F,B,Teen 18-19 Women,90+,Single-ply,TX,USA,137.44,,,,137.44,1
Erica Ansberry,F,B,Junior 20-25 Women,56,Single-ply,CA,USA,74.93,,,,74.93,1
Kelly Womack,F,B,Junior 20-25 Women,75,Single-ply,CA,USA,142.43,,,,142.43,1
Jaccie Tufts,F,B,Junior 20-25 Women,82.5,Single-ply,OH,USA,57.97,,,,57.97,1
Wendy Wiesjahn,F,B,Submaster 33-39 Women,56,Single-ply,WI,USA,62.46,,,,62.46,1
Mary Ann Hobbs,F,B,Submaster 33-39 Women,60,Single-ply,WA,USA,97.39,,,,97.39,1
Victoria Warshaw,F,B,Submaster 33-39 Women,67.5,Single-ply,WA,USA,122.47,,,,122.47,1
Rachele Unson,F,B,Submaster 33-39 Women,67.5,Single-ply,WA,USA,92.4,,,,92.4,2
Ferleshare Starks,F,B,Submaster 33-39 Women,75,Single-ply,TX,USA,57.47,,,,57.47,1
Anna Rosén,F,B,Submaster 33-39 Women,90+,Single-ply,,SWE,149.91,,,,149.91,1
Yuxin Hao,F,B,Master 40-46 Women,52,Single-ply,OH,USA,67.45,,,,67.45,1
Rebecca Moore,F,B,Master 40-46 Women,52,Single-ply,WA,USA,64.95,,,,64.95,2
Marla McElroy,F,B,Master 40-46 Women,56,Single-ply,IL,USA,69.94,,,,69.94,1
Teresa Jacobs,F,B,Master 40-46 Women,67.5,Single-ply,WA,USA,99.88,,,,99.88,1
Virpi Pukkila,F,B,Master 40-46 Women,75,Single-ply,,FIN,119.98,,,,119.98,1
Cyndi Crossland,F,B,Master 40-46 Women,75,Single-ply,OK,USA,114.99,,,,114.99,2
Josifina Jackson,F,B,Master 40-46 Women,75,Single-ply,TX,USA,77.43,,,,77.43,3
Linda Bradshaw,F,B,Master 40-46 Women,75,Single-ply,CA,USA,59.96,,,,59.96,4
Karen Campbell,F,B,Master 40-46 Women,82.5,Single-ply,ME,USA,172.46,,,,172.46,1
Kelli Sandoval,F,B,Master 40-46 Women,90,Single-ply,OR,USA,,,,,,DQ
Karon Denniston,F,B,Master 47-53 Women,56,Single-ply,MI,USA,52.39,,,,52.39,1
Marsha Goodman,F,B,Master 47-53 Women,67.5,Single-ply,AZ,USA,54.98,,,,54.98,1
Sheri Klocke,F,B,Master 47-53 Women,75,Single-ply,OR,USA,122.47,,,,122.47,1
Pamela Michaels-Olson,F,B,Master 47-53 Women,75,Single-ply,WA,USA,100.38,,,,100.38,2
Elizabeth Harwood,F,B,Master 47-53 Women,75,Single-ply,WA,USA,82.42,,,,82.42,3
Lisa Staplin,F,B,Master 47-53 Women,75,Single-ply,MN,USA,,,,,,DQ
Pamela Robinson,F,B,Master 47-53 Women,44,Single-ply,CA,USA,,,,,,DQ
Margie Huston,F,B,Master 47-53 Women,90+,Single-ply,WA,USA,99.88,,,,99.88,1
Mary Rubcic-Tawzer,F,B,Master 47-53 Women,90+,Single-ply,CA,USA,69.94,,,,69.94,2
Ita Pantilat,F,B,Master 54-60 Women,52,Single-ply,WA,USA,97.39,,,,97.39,1
Hedy Miller,F,B,Master 54-60 Women,52,Single-ply,UT,USA,94.89,,,,94.89,2
Sherry Abblett,F,B,Master 54-60 Women,44,Single-ply,CA,USA,42.41,45.4,,,42.41,1
Kathy Cash,F,B,Master 54-60 Women,90+,Single-ply,OR,USA,94.89,,,,94.89,1
Marilyn Lewis,F,B,Master 54-60 Women,90+,Single-ply,WA,USA,82.42,,,,82.42,2
Wilma Lee Cadavo,F,B,Master 54-60 Women,90+,Single-ply,ID,USA,74.93,,,,74.93,3
Betty Lafferty,F,B,Master 61-67 Women,48,Single-ply,AL,USA,69.94,,,,69.94,1
Mary-Ellen Buchanan,F,B,Master 61-67 Women,52,Single-ply,WA,USA,57.47,,,,57.47,1
Jacqueline Templer,F,B,Master 61-67 Women,52,Single-ply,AZ,USA,37.42,,,,37.42,2
Gayle Clawson,F,B,Master 61-67 Women,75,Single-ply,AZ,USA,74.93,,,,74.93,1
Pat Robey,F,B,Master 61-67 Women,82.5,Single-ply,WA,USA,99.88,,,,99.88,1
Julia Aaron-Boliver,F,B,Master 61-67 Women,90+,Single-ply,TX,USA,47.4,,,,47.4,1
Winifred Pristell,F,B,Master 68-74 Women,90+,Single-ply,WA,USA,79.92,,,,79.92,1
Malvina Basso,F,B,Master 75-79 Women,60,Single-ply,,BRA,32.43,,,,32.43,1
Gloria Mighell,F,B,Master 75-79 Women,90+,Single-ply,OR,USA,32.43,32.93,,,32.43,1
Melicent Whinston,F,B,Master 80-84 Women,67.5,Single-ply,OR,USA,29.94,32.43,,,29.94,1
Laurie Lamp,F,B,Law-Fire Open Women,56,Single-ply,WA,USA,92.4,,,,92.4,1
Robyn Peterson,F,B,Law-Fire Open Women,82.5,Single-ply,AZ,USA,62.46,,,,62.46,1
Julie Kimoto,F,B,Law-Fire Open Women,90+,Single-ply,HI,USA,112.49,117.48,,,112.49,1
Gary Bobrovitz,M,B,Open Men,60,Single-ply,,CAN,62.46,,,,62.46,2
Anthony Baxter,M,B,Open Men,67.5,Single-ply,WA,USA,217.5,,,,217.5,1
Alfredo Evangelista,M,B,Open Men,67.5,Single-ply,OR,USA,209.88,,,,209.88,2
Ryan Snelling,M,B,Open Men,75,Single-ply,MO,USA,274.97,,,,274.97,1
Richard Cirigliano,M,B,Open Men,75,Single-ply,CA,USA,274.97,,,,274.97,2
David Felton,M,B,Open Men,75,Single-ply,WI,USA,257.41,,,,257.41,3
Fulton White,M,B,Open Men,75,Single-ply,NV,USA,247.43,,,,247.43,4
Jonas Anderbring,M,B,Open Men,75,Single-ply,,SWE,237.46,,,,237.46,5
Justin Gourley,M,B,Open Men,75,Single-ply,IL,USA,227.48,,,,227.48,6
Daniel Porrazzo,M,B,Open Men,75,Single-ply,MA,USA,224.98,,,,224.98,7
Leo Honkala,M,B,Open Men,75,Single-ply,,SWE,197.4,,,,197.4,8
Leamon Woodley,M,B,Open Men,82.5,Single-ply,WA,USA,309.89,,,,309.89,1
Sakari Selkäinaho,M,B,Open Men,82.5,Single-ply,,FIN,254.92,,,,254.92,2
Aaron Pina,M,B,Open Men,82.5,Single-ply,CA,USA,249.93,,,,249.93,3
Tony Caprari,M,B,Open Men,90,Single-ply,MS,USA,339.97,,,,339.97,1
Josh Decker,M,B,Open Men,90,Single-ply,MI,USA,299.92,,,,299.92,2
Jared Wilsey,M,B,Open Men,90,Single-ply,TN,USA,287.44,,,,287.44,3
Dan Simpson,M,B,Open Men,90,Single-ply,OR,USA,217.5,,,,217.5,4
Dan Simpson,M,B,Open Men,90,Single-ply,CA,USA,204.89,,,,204.89,5
Tom Eiseman,M,B,Open Men,90,Single-ply,NJ,USA,,,,,,DQ
Niclas Friberg,M,B,Open Men,100,Single-ply,,SWE,304.9,,,,304.9,1
Chris Morris,M,B,Open Men,100,Single-ply,PA,USA,297.42,,,,297.42,2
Steve Lemarie,M,B,Open Men,100,Single-ply,LA,USA,292.43,,,,292.43,3
Ben Bittner,M,B,Open Men,100,Single-ply,MN,USA,279.96,,,,279.96,4
Brent Howard,M,B,Open Men,110,Single-ply,NV,USA,342.46,,,,342.46,1
Kari Pöntinen,M,B,Open Men,110,Single-ply,,FIN,340.47,,,,340.47,2
Garrett Muro,M,B,Open Men,110,Single-ply,NV,USA,309.89,,,,309.89,3
Al Bianchi,M,B,Open Men,110,Single-ply,MA,USA,302.41,,,,302.41,4
Jari Rosendahl,M,B,Open Men,110,Single-ply,,FIN,299.92,,,,299.92,5
Jussi Tuomainen,M,B,Open Men,117.5,Single-ply,,FIN,324.86,,,,324.86,1
Bobby Driskill,M,B,Open Men,117.5,Single-ply,AL,USA,304.9,,,,304.9,2
Terry Putman,M,B,Open Men,117.5,Single-ply,OK,USA,294.93,,,,294.93,3
Colin Keohuloa,M,B,Open Men,117.5,Single-ply,HI,USA,282.45,,,,282.45,4
Joshua Carter,M,B,Open Men,117.5,Single-ply,MT,USA,267.39,,,,267.39,5
Daniel Reeves,M,B,Open Men,117.5,Single-ply,AZ,USA,249.93,,,,249.93,6
Patrick Holloway,M,B,Open Men,125,Single-ply,AZ,USA,347.45,,,,347.45,1
Göran Rosén,M,B,Open Men,125,Single-ply,,SWE,324.86,,,,324.86,2
Jerry Pritchett,M,B,Open Men,140,Single-ply,AZ,USA,352.44,,,,352.44,1
Ronnie Castro,M,B,Open Men,140,Single-ply,CA,USA,314.88,,,,314.88,2
Carl Rex Hubbard,M,B,Open Men,140,Single-ply,AZ,USA,312.39,,,,312.39,3
Damir Krunic,M,B,Open Men,140,Single-ply,,SWE,309.89,,,,309.89,4
Dave Forstner,M,B,Open Men,140,Single-ply,MI,USA,294.93,,,,294.93,5
Andy Medak,M,B,Open Men,140,Single-ply,WA,USA,292.43,,,,292.43,6
Joe Mickelson,M,B,Open Men,140,Single-ply,WA,USA,244.94,,,,244.94,7
Jani Murtomeki,M,B,Open Men,140+,Single-ply,,FIN,344.96,,,,344.96,1
James Greene,M,B,Open Men,140+,Single-ply,MT,USA,294.93,,,,294.93,2
Jacob Crabtree,M,D,Class I Men,60,Single-ply,CA,USA,,,149.91,,149.91,1
Ray Segura,M,D,Class I Men,67.5,Single-ply,WA,USA,,,184.93,,184.93,1
Michael DeSimone,M,D,Class I Men,67.5,Single-ply,NY,USA,,,,,,DQ
Donnie Miskinis,M,D,Class I Men,75,Single-ply,OH,USA,,,231.47,,231.47,1
Dave Constantineau,M,D,Class I Men,75,Single-ply,WI,USA,,,224.98,,224.98,2
Travis Miller,M,D,Class I Men,75,Single-ply,WI,USA,,,207.38,,207.38,3
Marloe Mosley,M,D,Class I Men,75,Single-ply,TX,USA,,,194.91,,194.91,4
Mark Reuer,M,D,Class I Men,75,Single-ply,SD,USA,,,187.42,,187.42,5
Ben Kammueller,M,D,Class I Men,75,Single-ply,WI,USA,,,182.43,,182.43,6
Danny Borakove,M,D,Class I Men,75,Single-ply,NY,USA,,,157.4,,157.4,7
Warren Fahrenfeld,M,D,Class I Men,82.5,Single-ply,NJ,USA,,,284.95,,284.95,1
Dan Marxheimer,M,D,Class I Men,82.5,Single-ply,WA,USA,,,249.93,,249.93,2
Seán Hickey,M,D,Class I Men,82.5,Single-ply,WI,USA,,,237.46,,237.46,3
Bobby Whiting,M,D,Class I Men,82.5,Single-ply,NY,USA,,,209.88,,209.88,4
Bobby Burns,M,D,Class I Men,90,Single-ply,WA,USA,,,264.9,,264.9,1
Chris Mangano,M,D,Class I Men,90,Single-ply,CA,USA,,,259.91,,259.91,2
Rolando Espinoza,M,D,Class I Men,90,Single-ply,TX,USA,,,227.48,,227.48,3
Dan Simpson,M,D,Class I Men,90,Single-ply,OR,USA,,,217.5,,217.5,4
Doug Amburgey,M,D,Class I Men,90,Single-ply,OH,USA,,,159.89,,159.89,5
Brian Fahrenfeld,M,D,Class I Men,100,Single-ply,NY,USA,,,282.45,,282.45,1
Ben Bittner,M,D,Class I Men,100,Single-ply,MN,USA,,,279.96,,279.96,2
Hunter Beall,M,D,Class I Men,100,Single-ply,LA,USA,,,264.9,,264.9,3
Steven Petersen,M,D,Class I Men,100,Single-ply,TX,USA,,,259.91,,259.91,4
Jeremy Drecksel,M,D,Class I Men,100,Single-ply,UT,USA,,,257.41,,257.41,5
Chuck Ortwein,M,D,Class I Men,100,Single-ply,CA,USA,,,249.93,,249.93,6
Timo Niskanen,M,D,Class I Men,110,Single-ply,,SWE,,,282.45,,282.45,1
Brent Nikolaus,M,D,Class I Men,110,Single-ply,WA,USA,,,264.9,,264.9,2
Eric Shimomi,M,D,Class I Men,110,Single-ply,HI,USA,,,232.47,,232.47,3
Fred Riccardi,M,D,Class I Men,117.5,Single-ply,NY,USA,,,249.93,,249.93,1
Eric Poitevien,M,D,Class I Men,125,Single-ply,NY,USA,,,317.88,,317.88,1
Brandon Bankston,M,D,Class I Men,125,Single-ply,LA,USA,,,272.47,,272.47,2
Thomas Guiney,M,D,Class I Men,140,Single-ply,OK,USA,,,302.41,,302.41,1
Robert Speno,M,D,Class I Men,140,Single-ply,CA,USA,,,289.94,,289.94,2
Jeffrey Place,M,D,Class I Men,140+,Single-ply,OR,USA,,,295.42,,295.42,1
Leo Contreras,M,D,Class I Men,140+,Single-ply,CA,USA,,,169.96,,169.96,2
Vilmar Oliveira,M,D,Disabled Men,82.5,Single-ply,,BRA,,,199.9,,199.9,1
Phillip Turner,M,D,Special Olympian Men,82.5,Single-ply,TX,USA,,,127.46,,127.46,1
Brady Tanner,M,D,Special Olympian Men,110,Single-ply,KS,USA,,,249.93,,249.93,1
Joshua Ross,M,D,Special Olympian Men,110,Single-ply,TX,USA,,,157.4,,157.4,2
Chace Akina,M,D,Teen 12-13 Men,52,Single-ply,HI,USA,,,132.95,,132.95,1
Dustin Pfeiffer,M,D,Teen 12-13 Men,82.5,Single-ply,OH,USA,,,124.96,,124.96,1
Dylan Sites,M,D,Teen 14-15 Men,56,Single-ply,OR,USA,,,142.43,,142.43,1
Jared Hockaday,M,D,Teen 14-15 Men,75,Single-ply,MT,USA,,,152.41,,152.41,1
Hunter Pooser,M,D,Teen 14-15 Men,110,Single-ply,AL,USA,,,192.91,,192.91,1
Ryan Reppond,M,D,Teen 16-17 Men,60,Single-ply,CA,USA,,,164.97,,164.97,1
Ryan Lund,M,D,Teen 16-17 Men,67.5,Single-ply,UT,USA,,,192.41,,192.41,1
Max Sandoval,M,D,Teen 16-17 Men,67.5,Single-ply,OR,USA,,,164.97,,164.97,2
Andrew McDonald,M,D,Teen 16-17 Men,67.5,Single-ply,WA,USA,,,137.44,,137.44,3
Bradley Bennett,M,D,Teen 16-17 Men,75,Single-ply,OH,USA,,,184.93,,184.93,1
Danny Borakove,M,D,Teen 16-17 Men,75,Single-ply,NY,USA,,,157.4,,157.4,2
Sanford Graves,M,D,Teen 16-17 Men,82.5,Single-ply,CA,USA,,,199.9,,199.9,1
Judd Sato III,M,D,Teen 16-17 Men,82.5,Single-ply,HI,USA,,,192.41,,192.41,2
Jake Garbush,M,D,Teen 16-17 Men,90,Single-ply,WA,USA,,,249.93,,249.93,1
Chad Gaytan,M,D,Teen 16-17 Men,90,Single-ply,CA,USA,,,159.89,,159.89,2
Mark Stamper,M,D,Teen 16-17 Men,110,Single-ply,CA,USA,,,222.49,,222.49,1
Billy Henry,M,D,Teen 16-17 Men,110,Single-ply,WA,USA,,,164.97,,164.97,2
William Klus,M,D,Teen 16-17 Men,140+,Single-ply,MI,USA,,,197.4,204.89,197.4,1
Tohora Harawira,M,D,Teen 16-17 Men,140+,Single-ply,,NZL,,,174.95,,174.95,2
Logan Anglewicz,M,D,Teen 18-19 Men,60,Single-ply,OH,USA,,,97.89,,97.89,1
Joshua Tamayo,M,D,Teen 18-19 Men,67.5,Single-ply,TX,USA,,,227.48,,227.48,1
Anthony Baxter,M,D,Teen 18-19 Men,67.5,Single-ply,WA,USA,,,217.5,,217.5,2
Olawale Olofinboba,M,D,Teen 18-19 Men,67.5,Single-ply,,CAN,,,154.9,,154.9,3
Donnie Miskinis,M,D,Teen 18-19 Men,75,Single-ply,OH,USA,,,231.47,,231.47,1
Travis Miller,M,D,Teen 18-19 Men,75,Single-ply,WI,USA,,,207.38,,207.38,2
Scott Johnson,M,D,Teen 18-19 Men,75,Single-ply,CA,USA,,,192.41,,192.41,3
A. J. Mangum,M,D,Teen 18-19 Men,82.5,Single-ply,TX,USA,,,304.9,,304.9,1
Bobby Whiting,M,D,Teen 18-19 Men,82.5,Single-ply,NY,USA,,,209.88,,209.88,2
Ricardo Contreras Jr,M,D,Teen 18-19 Men,82.5,Single-ply,TX,USA,,,197.4,,197.4,3
Ben Mc Caulley,M,D,Teen 18-19 Men,82.5,Single-ply,WA,USA,,,182.43,,182.43,4
Nick Wilks,M,D,Teen 18-19 Men,82.5,Single-ply,WA,USA,,,117.48,,117.48,5
Ben Rice,M,D,Teen 18-19 Men,90,Single-ply,WA,USA,,,282.45,,282.45,1
Raymond Garcia,M,D,Teen 18-19 Men,90,Single-ply,CA,USA,,,169.96,,169.96,2
Hunter Beall,M,D,Teen 18-19 Men,100,Single-ply,LA,USA,,,264.9,,264.9,1
Conner Rounds,M,D,Teen 18-19 Men,110,Single-ply,WA,USA,,,288.44,,288.44,1
Frank Ginez III,M,D,Teen 18-19 Men,140+,Single-ply,TX,USA,,,272.47,,272.47,1
Scott Galeck,M,D,Junior 20-25 Men,56,Single-ply,CA,USA,,,137.44,,137.44,1
Richard Hawthorne,M,D,Junior 20-25 Men,60,Single-ply,MS,USA,,,249.93,,249.93,1
Casey Bochonowicz,M,D,Junior 20-25 Men,60,Single-ply,OH,USA,,,147.42,,147.42,2
Nick Lenhart,M,D,Junior 20-25 Men,67.5,Single-ply,UT,USA,,,242.45,,242.45,1
Ray Segura,M,D,Junior 20-25 Men,67.5,Single-ply,WA,USA,,,184.93,,184.93,2
Michael DeSimone,M,D,Junior 20-25 Men,67.5,Single-ply,NY,USA,,,,,,DQ
Edwin Manmano,M,D,Junior 20-25 Men,75,Single-ply,HI,USA,,,277.96,,277.96,1
Justin Gourley,M,D,Junior 20-25 Men,75,Single-ply,IL,USA,,,227.48,,227.48,2
Nick Rosencutter,M,D,Junior 20-25 Men,82.5,Single-ply,WI,USA,,,239.95,,239.95,1
William Hibdon,M,D,Junior 20-25 Men,90,Single-ply,CA,USA,,,272.47,,272.47,1
Bobby Burns,M,D,Junior 20-25 Men,90,Single-ply,WA,USA,,,264.9,,264.9,2
Shane Oakley,M,D,Junior 20-25 Men,90,Single-ply,CO,USA,,,257.91,,257.91,3
Weston Zunker,M,D,Junior 20-25 Men,100,Single-ply,TX,USA,,,279.96,,279.96,1
David Barth,M,D,Junior 20-25 Men,100,Single-ply,PA,USA,,,259.91,,259.91,2
Kyle Herzik,M,D,Junior 20-25 Men,100,Single-ply,NV,USA,,,232.47,,232.47,3
Jon Mokma,M,D,Junior 20-25 Men,100,Single-ply,MI,USA,,,227.48,,227.48,4
Adam Contreras,M,D,Junior 20-25 Men,100,Single-ply,CA,USA,,,174.95,,174.95,5
Garrett Muro,M,D,Junior 20-25 Men,110,Single-ply,NV,USA,,,309.89,,309.89,1
Ben Smith,M,D,Junior 20-25 Men,110,Single-ply,ME,USA,,,194.91,,194.91,2
Fred Riccardi,M,D,Junior 20-25 Men,117.5,Single-ply,NY,USA,,,249.93,,249.93,1
Daniel Reeves,M,D,Junior 20-25 Men,117.5,Single-ply,AZ,USA,,,249.93,,249.93,2
Ben Foreman,M,D,Junior 20-25 Men,117.5,Single-ply,,CAN,,,192.41,,192.41,3
Nicolas Lepine,M,D,Junior 20-25 Men,125,Single-ply,IL,USA,,,299.92,,299.92,1
Brendan Luedtke,M,D,Junior 20-25 Men,125,Single-ply,NV,USA,,,289.94,,289.94,2
Jonathon Jones,M,D,Junior 20-25 Men,125,Single-ply,CA,USA,,,272.47,,272.47,3
Carl Rex Hubbard,M,D,Junior 20-25 Men,140,Single-ply,AZ,USA,,,312.39,,312.39,1
Marchand Fleming,M,D,Submaster 33-39 Men,75,Single-ply,OK,USA,,,227.48,,227.48,1
Aaron Pina,M,D,Submaster 33-39 Men,82.5,Single-ply,CA,USA,,,249.93,,249.93,1
Keith Stevens,M,D,Submaster 33-39 Men,82.5,Single-ply,CA,USA,,,227.48,,227.48,2
Niclas Friberg,M,D,Submaster 33-39 Men,100,Single-ply,,SWE,,,304.9,,304.9,1
Brian Fahrenfeld,M,D,Submaster 33-39 Men,100,Single-ply,NY,USA,,,282.45,,282.45,2
Michael Rainey,M,D,Submaster 33-39 Men,100,Single-ply,GA,USA,,,274.97,,274.97,3
Jeremy Drecksel,M,D,Submaster 33-39 Men,100,Single-ply,UT,USA,,,257.41,,257.41,4
Shahid Shabazz,M,D,Submaster 33-39 Men,100,Single-ply,IL,USA,,,229.97,,229.97,5
Kari Pöntinen,M,D,Submaster 33-39 Men,110,Single-ply,,FIN,,,340.47,,340.47,1
Ed Barnes,M,D,Submaster 33-39 Men,110,Single-ply,CA,USA,,,259.91,,259.91,2
Peter Tumminello,M,D,Submaster 33-39 Men,110,Single-ply,CA,USA,,,252.42,,252.42,3
James Dunn,M,D,Submaster 33-39 Men,117.5,Single-ply,TX,USA,,,314.88,,314.88,1
Eric Poitevien,M,D,Submaster 33-39 Men,125,Single-ply,NY,USA,,,317.88,,317.88,1
Brandon Bankston,M,D,Submaster 33-39 Men,125,Single-ply,LA,USA,,,272.47,,272.47,2
Dave Forstner,M,D,Submaster 33-39 Men,140,Single-ply,MI,USA,,,294.93,,294.93,1
Robert Speno,M,D,Submaster 33-39 Men,140,Single-ply,CA,USA,,,289.94,,289.94,2
Guy Powell,M,D,Submaster 33-39 Men,140,Single-ply,WI,USA,,,262.4,,262.4,3
Keoni Reich,M,D,Submaster 33-39 Men,140+,Single-ply,HI,USA,,,327.49,,327.49,1
Keith Cunningham,M,D,Master 40-46 Men,75,Single-ply,WA,USA,,,252.42,,252.42,1
Daniel Porrazzo,M,D,Master 40-46 Men,75,Single-ply,MA,USA,,,224.98,,224.98,2
Jeffrey Paull,M,D,Master 40-46 Men,75,Single-ply,CA,USA,,,214.87,,214.87,3
Robert Sunshine,M,D,Master 40-46 Men,75,Single-ply,NY,USA,,,199.9,,199.9,4
Joseph Lamonica,M,D,Master 40-46 Men,75,Single-ply,,CAN,,,197.9,,197.9,5
Warren Fahrenfeld,M,D,Master 40-46 Men,82.5,Single-ply,NJ,USA,,,284.95,,284.95,1
Sakari Selkäinaho,M,D,Master 40-46 Men,82.5,Single-ply,,FIN,,,254.92,,254.92,2
Chris Goyes,M,D,Master 40-46 Men,82.5,Single-ply,TX,USA,,,237.46,,237.46,3
Dan Guches,M,D,Master 40-46 Men,90,Single-ply,OR,USA,,,264.9,,264.9,1
Rolando Espinoza,M,D,Master 40-46 Men,90,Single-ply,TX,USA,,,227.48,,227.48,2
John Pfeiffer,M,D,Master 40-46 Men,90,Single-ply,OH,USA,,,152.91,,152.91,3
Steve Lemarie,M,D,Master 40-46 Men,100,Single-ply,LA,USA,,,292.43,,292.43,1
Al Tortorelli,M,D,Master 40-46 Men,100,Single-ply,CA,USA,,,287.44,,287.44,2
Steven Petersen,M,D,Master 40-46 Men,100,Single-ply,TX,USA,,,259.91,,259.91,3
Harlan South,M,D,Master 40-46 Men,100,Single-ply,IL,USA,,,252.42,,252.42,4
Al Bianchi,M,D,Master 40-46 Men,110,Single-ply,MA,USA,,,302.41,,302.41,1
Donnie Hamblin,M,D,Master 40-46 Men,110,Single-ply,AZ,USA,,,227.48,,227.48,2
Terry Putman,M,D,Master 40-46 Men,117.5,Single-ply,OK,USA,,,294.93,,294.93,1
Patrick Holloway,M,D,Master 40-46 Men,125,Single-ply,AZ,USA,,,347.45,,347.45,1
Göran Rosén,M,D,Master 40-46 Men,125,Single-ply,,SWE,,,324.86,,324.86,2
Joe Garcia,M,D,Master 40-46 Men,125,Single-ply,OR,USA,,,272.47,,272.47,3
Boyd Hurley,M,D,Master 40-46 Men,125,Single-ply,HI,USA,,,259.91,,259.91,4
Jason Laskowski,M,D,Master 40-46 Men,125,Single-ply,TX,USA,,,,,,DQ
Thomas Guiney,M,D,Master 40-46 Men,140,Single-ply,OK,USA,,,302.41,,302.41,1
Jeff Peshek,M,D,Master 40-46 Men,140,Single-ply,OH,USA,,,284.95,,284.95,2
Jeffrey Place,M,D,Master 40-46 Men,140+,Single-ply,OR,USA,,,295.42,,295.42,1
Richard Cirigliano,M,D,Master 47-53 Men,75,Single-ply,CA,USA,,,274.97,,274.97,1
David Felton,M,D,Master 47-53 Men,75,Single-ply,WI,USA,,,257.41,,257.41,2
Fulton White,M,D,Master 47-53 Men,75,Single-ply,NV,USA,,,247.43,,247.43,3
Dave Constantineau,M,D,Master 47-53 Men,75,Single-ply,WI,USA,,,224.98,,224.98,4
Marloe Mosley,M,D,Master 47-53 Men,75,Single-ply,TX,USA,,,194.91,,194.91,5
Leamon Woodley,M,D,Master 47-53 Men,82.5,Single-ply,WA,USA,,,309.89,,309.89,1
David Brekke,M,D,Master 47-53 Men,82.5,Single-ply,CA,USA,,,229.97,,229.97,2
Mark Lo,M,D,Master 47-53 Men,82.5,Single-ply,HI,USA,,,227.98,,227.98,3
Tim Epting,M,D,Master 47-53 Men,90,Single-ply,TX,USA,,,184.93,,184.93,1
Neil Schoenebeck,M,D,Master 47-53 Men,100,Single-ply,MI,USA,,,289.94,,289.94,1
Chuck Ortwein,M,D,Master 47-53 Men,100,Single-ply,CA,USA,,,249.93,,249.93,2
Robert Harris,M,D,Master 47-53 Men,100,Single-ply,NV,USA,,,239.95,,239.95,3
Jim Curley,M,D,Master 47-53 Men,100,Single-ply,CO,USA,,,229.97,,229.97,4
Dave Rodgers,M,D,Master 47-53 Men,100,Single-ply,OR,USA,,,227.48,,227.48,5
Al Dawson,M,D,Master 47-53 Men,110,Single-ply,WA,USA,,,284.95,,284.95,1
Samuel Schultz,M,D,Master 47-53 Men,110,Single-ply,OR,USA,,,237.46,,237.46,2
Gary Stevens,M,D,Master 47-53 Men,110,Single-ply,WY,USA,,,237.46,,237.46,3
Eric Shimomi,M,D,Master 47-53 Men,110,Single-ply,HI,USA,,,232.47,,232.47,4
Steve Gaytan,M,D,Master 47-53 Men,110,Single-ply,CA,USA,,,229.97,,229.97,5
Bobby Driskill,M,D,Master 47-53 Men,117.5,Single-ply,AL,USA,,,304.9,,304.9,1
Phillip Arroyo,M,D,Master 47-53 Men,117.5,Single-ply,WA,USA,,,244.94,,244.94,2
Andy Medak,M,D,Master 47-53 Men,140,Single-ply,WA,USA,,,292.43,,292.43,1
Richard Lukland,M,D,Master 47-53 Men,140,Single-ply,OH,USA,,,282.45,,282.45,2
Blair Fisher,M,D,Master 47-53 Men,140,Single-ply,,CAN,,,264.9,,264.9,3
Joe Mickelson,M,D,Master 47-53 Men,140,Single-ply,WA,USA,,,244.94,,244.94,4
James Mersberg,M,D,Master 47-53 Men,140+,Single-ply,HI,USA,,,274.97,,274.97,1
Frank Principati,M,D,Master 54-60 Men,56,Single-ply,PA,USA,,,137.44,,137.44,1
Chuck Wong,M,D,Master 54-60 Men,60,Single-ply,MN,USA,,,202.39,,202.39,1
Gary Bobrovitz,M,D,Master 54-60 Men,60,Single-ply,,CAN,,,62.46,,62.46,2
Alfredo Evangelista,M,D,Master 54-60 Men,67.5,Single-ply,OR,USA,,,209.88,,209.88,1
Gary Miller #2,M,D,Master 54-60 Men,67.5,Single-ply,NV,USA,,,162.39,,162.39,2
Gregory Kleyn,M,D,Master 54-60 Men,75,Single-ply,IL,USA,,,254.92,,254.92,1
Flavio Da Costa Baptista,M,D,Master 54-60 Men,82.5,Single-ply,,BRA,,,169.96,,169.96,1
Rudy Kadlub,M,D,Master 54-60 Men,90,Single-ply,OR,USA,,,229.97,,229.97,1
Kenneth Kirk,M,D,Master 54-60 Men,90,Single-ply,CA,USA,,,162.39,,162.39,2
Jon Wolbers,M,D,Master 54-60 Men,100,Single-ply,,CAN,,,252.42,,252.42,1
Peter Murphy,M,D,Master 54-60 Men,100,Single-ply,CA,USA,,,242.45,,242.45,2
John Phillips,M,D,Master 54-60 Men,100,Single-ply,OH,USA,,,229.97,,229.97,3
Marvin Hollan,M,D,Master 54-60 Men,110,Single-ply,TX,USA,,,242.45,,242.45,1
David Wolf,M,D,Master 54-60 Men,110,Single-ply,WY,USA,,,234.96,,234.96,2
Thomas Wright,M,D,Master 54-60 Men,110,Single-ply,KS,USA,,,167.47,,167.47,3
Gilbert Anderson,M,D,Master 54-60 Men,117.5,Single-ply,UT,USA,,,272.47,,272.47,1
Sam Pecktol,M,D,Master 54-60 Men,125,Single-ply,OR,USA,,,294.93,,294.93,1
Manny Burruel,M,D,Master 54-60 Men,140,Single-ply,CA,USA,,,277.96,,277.96,1
Leo Contreras,M,D,Master 54-60 Men,140+,Single-ply,CA,USA,,,169.96,,169.96,1
Moses Timbal,M,D,Master 61-67 Men,75,Single-ply,HI,USA,,,220.49,,220.49,1
Martin Montgomery,M,D,Master 61-67 Men,75,Single-ply,IN,USA,,,209.88,,209.88,2
James Christian,M,D,Master 61-67 Men,75,Single-ply,TX,USA,,,204.89,,204.89,3
Ray Gandeza Sr,M,D,Master 61-67 Men,75,Single-ply,HI,USA,,,182.43,,182.43,4
Stefan Lemire,M,D,Master 61-67 Men,75,Single-ply,UT,USA,,,132.45,,132.45,5
Dennis Johnson,M,D,Master 61-67 Men,82.5,Single-ply,WI,USA,,,249.93,,249.93,1
Jack Rankin,M,D,Master 61-67 Men,82.5,Single-ply,WA,USA,,,217.5,,217.5,2
Bob Hochstein,M,D,Master 61-67 Men,90,Single-ply,IL,USA,,,254.92,,254.92,1
James Rouse,M,D,Master 61-67 Men,90,Single-ply,IL,USA,,,237.46,,237.46,2
Alfred Franke,M,D,Master 61-67 Men,90,Single-ply,NV,USA,,,218,,218,3
Vince Breaux,M,D,Master 61-67 Men,100,Single-ply,LA,USA,,,254.92,,254.92,1
Clifford Ferris,M,D,Master 61-67 Men,110,Single-ply,CA,USA,,,192.41,,192.41,1
Bud Davis,M,D,Master 61-67 Men,117.5,Single-ply,UT,USA,,,292.43,,292.43,1
Lindy Blas,M,D,Master 68-74 Men,56,Single-ply,NV,USA,,,117.48,,117.48,1
Arlindo da Silva,M,D,Master 68-74 Men,75,Single-ply,,BRA,,,169.96,,169.96,1
Dan Martin,M,D,Master 68-74 Men,82.5,Single-ply,NV,USA,,,238.45,,238.45,1
Ron Ringewold,M,D,Master 68-74 Men,82.5,Single-ply,MI,USA,,,217.5,,217.5,2
Larry Joiner,M,D,Master 68-74 Men,82.5,Single-ply,CA,USA,,,122.47,,122.47,3
Tom O'Keefe,M,D,Master 68-74 Men,90,Single-ply,CO,USA,,,154.9,,154.9,1
Jim Huggins,M,D,Master 68-74 Men,100,Single-ply,WA,USA,,,189.92,,189.92,1
Robert Cortes,M,D,Master 75-79 Men,75,Single-ply,CA,USA,,,203.39,,203.39,1
Leo Honkala,M,D,Master 75-79 Men,75,Single-ply,,SWE,,,197.4,,197.4,2
Richard Simon,M,D,Master 75-79 Men,82.5,Single-ply,CA,USA,,,139.93,,139.93,1
Russell Combest,M,D,Master 75-79 Men,100,Single-ply,OH,USA,,,199.9,,199.9,1
Lou Corulli,M,D,Master 75-79 Men,110,Single-ply,WA,USA,,,159.89,,159.89,1
Arthur Whinston,M,D,Master 80-84 Men,67.5,Single-ply,OR,USA,,,,,,DQ
Devin Tallerico,M,D,Law-Fire Open Men,110,Single-ply,CA,USA,,,249.93,,249.93,1
Marcus Austin,M,D,Law-Fire Open Men,140,Single-ply,OK,USA,,,229.97,,229.97,1
Aaron Wolfe,M,D,Law-Fire Open Men,140+,Single-ply,HI,USA,,,302.41,,302.41,1
Alfred Jackson,M,D,Law-Fire Submaster Men,82.5,Single-ply,WA,USA,,,264.9,,264.9,1
Barran Stone,M,D,Law-Fire Submaster Men,100,Single-ply,TX,USA,,,219.99,,219.99,1
Devin Tallerico,M,D,Law-Fire Submaster Men,110,Single-ply,CA,USA,,,249.93,,249.93,1
Marcus Austin,M,D,Law-Fire Submaster Men,140,Single-ply,OK,USA,,,229.97,,229.97,1
Keoni Reich,M,D,Law-Fire Submaster Men,140+,Single-ply,HI,USA,,,327.49,,327.49,1
Aaron Wolfe,M,D,Law-Fire Submaster Men,140+,Single-ply,HI,USA,,,302.41,,302.41,2
Chris Russo,M,D,Law-Fire 40-47 Men,110,Single-ply,NJ,USA,,,247.43,,247.43,1
William Denniston,M,D,Law-Fire 48-55 Men,100,Single-ply,MI,USA,,,208.38,,208.38,1
Marvin Hollan,M,D,Law-Fire 48-55 Men,110,Single-ply,TX,USA,,,242.45,,242.45,1
Manny Burruel,M,D,Law-Fire 48-55 Men,140,Single-ply,CA,USA,,,277.96,,277.96,1
James Rouse,M,D,Law-Fire 56+ Men,90,Single-ply,IL,USA,,,237.46,,237.46,1
Dana Snow,F,D,Open Women,56,Single-ply,WA,USA,,,144.92,,144.92,1
Nora Smiriga,F,D,Open Women,56,Single-ply,CA,USA,,,97.39,,97.39,2
Mary Ann Hobbs,F,D,Open Women,60,Single-ply,WA,USA,,,147.42,,147.42,1
Velma Panlasigui,F,D,Open Women,60,Single-ply,HI,USA,,,129.95,,129.95,2
Liisa Penttinen,F,D,Open Women,67.5,Single-ply,,FIN,,,194.91,,194.91,1
Leslie Hofheins,F,D,Open Women,67.5,Single-ply,UT,USA,,,192.41,,192.41,2
Teresa Jacobs,F,D,Open Women,67.5,Single-ply,WA,USA,,,184.93,,184.93,3
Victoria Warshaw,F,D,Open Women,67.5,Single-ply,WA,USA,,,182.43,,182.43,4
Rachele Unson,F,D,Open Women,67.5,Single-ply,WA,USA,,,149.91,,149.91,5
Laura Thierolf,F,D,Open Women,67.5,Single-ply,WA,USA,,,149.91,,149.91,6
Lesa Dillon,F,D,Open Women,67.5,Single-ply,TX,USA,,,114.99,,114.99,7
Querubin Rodriguez,F,D,Open Women,75,Single-ply,TX,USA,,,137.44,,137.44,1
Jamie Clawson,F,D,Open Women,75,Single-ply,MT,USA,,,137.44,,137.44,2
Karen Campbell,F,D,Open Women,82.5,Single-ply,ME,USA,,,172.46,,172.46,1
Annie Bowman,F,D,Open Women,82.5,Single-ply,WA,USA,,,159.89,,159.89,2
Robyn Peterson,F,D,Open Women,82.5,Single-ply,AZ,USA,,,114.99,,114.99,3
Elizabeth Cabe,F,D,Open Women,44,Single-ply,HI,USA,,,107.37,,107.37,1
Josefin Brander,F,D,Open Women,90+,Single-ply,,SWE,,,244.94,,244.94,1
Anna Rosén,F,D,Open Women,90+,Single-ply,,SWE,,,229.97,,229.97,2
Jessica Hurley,F,D,Open Women,90+,Single-ply,HI,USA,,,182.43,,182.43,3
Kayla Sua,F,D,Open Women,90+,Single-ply,WA,USA,,,182.43,,182.43,4
Alexandra Pecktol,F,D,Teen 12-13 Women,52,Single-ply,OR,USA,,,99.88,104.87,99.88,1
Ali Miskinis,F,D,Teen 12-13 Women,56,Single-ply,OH,USA,,,105.37,,105.37,1
Veera Selkainaho,F,D,Teen 14-15 Women,52,Single-ply,,FIN,,,89.9,,89.9,1
Jacqueline Wickens,F,D,Teen 14-15 Women,82.5,Single-ply,NV,USA,,,159.89,,159.89,1
Cheyenne Tavares,F,D,Teen 14-15 Women,44,Single-ply,HI,USA,,,107.86,112.49,107.86,1
Angela Rocha,F,D,Teen 16-17 Women,48,Single-ply,TX,USA,,,110,,110,1
Abigail Seale,F,D,Teen 16-17 Women,60,Single-ply,TX,USA,,,102.38,,102.38,1
Victoria Roumbanis,F,D,Teen 16-17 Women,60,Single-ply,CA,USA,,,102.38,,102.38,2
Melissa Garza,F,D,Teen 16-17 Women,60,Single-ply,TX,USA,,,94.89,97.39,94.89,3
Rachel Talley,F,D,Teen 16-17 Women,60,Single-ply,WA,USA,,,89.9,92.4,89.9,4
Sarah Biddle,F,D,Teen 16-17 Women,67.5,Single-ply,IN,USA,,,124.96,,124.96,1
Olivia Houseman,F,D,Teen 16-17 Women,75,Single-ply,WA,USA,,,122.47,,122.47,1
Jessica Hurley,F,D,Teen 16-17 Women,90,Single-ply,HI,USA,,,192.91,,192.91,1
Angela Barrera,F,D,Teen 16-17 Women,44,Single-ply,TX,USA,,,74.93,77.43,74.93,1
Kayla Sua,F,D,Teen 16-17 Women,90+,Single-ply,WA,USA,,,172.46,,172.46,1
Alisha McGlothlin,F,D,Teen 16-17 Women,90+,Single-ply,WA,USA,,,142.43,,142.43,2
Meghan Toomey,F,D,Teen 16-17 Women,90+,Single-ply,CA,USA,,,132.45,,132.45,3
Rebekah Garcia,F,D,Teen 16-17 Women,90+,Single-ply,TX,USA,,,127.46,,127.46,4
Chanel Lewis,F,D,Teen 18-19 Women,48,Single-ply,TX,USA,,,89.9,,89.9,1
Hannah Biddle,F,D,Teen 18-19 Women,90,Single-ply,IN,USA,,,122.47,,122.47,1
Renee Good,F,D,Junior 20-25 Women,60,Single-ply,TN,USA,,,79.92,,79.92,1
Zandra Cebuano,F,D,Junior 20-25 Women,67.5,Single-ply,CA,USA,,,147.42,,147.42,1
Jaccie Tufts,F,D,Junior 20-25 Women,82.5,Single-ply,OH,USA,,,128.96,,128.96,1
Ashley Aguas,F,D,Junior 20-25 Women,44,Single-ply,CA,USA,,,104.87,110,104.87,1
Wendy Wiesjahn,F,D,Submaster 33-39 Women,56,Single-ply,WI,USA,,,127.46,,127.46,1
Mary Ann Hobbs,F,D,Submaster 33-39 Women,60,Single-ply,WA,USA,,,147.42,,147.42,1
Velma Panlasigui,F,D,Submaster 33-39 Women,60,Single-ply,HI,USA,,,129.95,,129.95,2
Leslie Hofheins,F,D,Submaster 33-39 Women,67.5,Single-ply,UT,USA,,,192.41,,192.41,1
Victoria Warshaw,F,D,Submaster 33-39 Women,67.5,Single-ply,WA,USA,,,174.95,,174.95,2
Rachele Unson,F,D,Submaster 33-39 Women,67.5,Single-ply,WA,USA,,,149.91,,149.91,3
Ferleshare Starks,F,D,Submaster 33-39 Women,75,Single-ply,TX,USA,,,144.92,,144.92,1
An Rosen,F,D,Submaster 33-39 Women,90+,Single-ply,,SWE,,,229.97,,229.97,1
Leila Mc Kindra,F,D,Submaster 33-39 Women,90+,Single-ply,IN,USA,,,182.43,,182.43,2
Teresa Jacobs,F,D,Master 40-46 Women,67.5,Single-ply,WA,USA,,,184.93,,184.93,1
Shelly Adamczak,F,D,Master 40-46 Women,67.5,Single-ply,MI,USA,,,142.43,,142.43,2
Lesa Dillon,F,D,Master 40-46 Women,67.5,Single-ply,TX,USA,,,114.99,,114.99,3
Josifina Jackson,F,D,Master 40-46 Women,75,Single-ply,TX,USA,,,119.98,,119.98,1
Jennifer Taylor,F,D,Master 40-46 Women,82.5,Single-ply,OR,USA,,,182.43,,182.43,1
Karen Campbell,F,D,Master 40-46 Women,82.5,Single-ply,ME,USA,,,172.46,,172.46,2
Kelli Sandoval,F,D,Master 40-46 Women,90,Single-ply,OR,USA,,,164.97,,164.97,1
Elizabeth Cabe,F,D,Master 40-46 Women,44,Single-ply,HI,USA,,,107.37,,107.37,1
Jeanne Morris,F,D,Master 47-53 Women,52,Single-ply,WA,USA,,,114.99,,114.99,1
Leticia Rosales-Buie,F,D,Master 47-53 Women,56,Single-ply,CA,USA,,,129.95,,129.95,1
Karon Denniston,F,D,Master 47-53 Women,56,Single-ply,MI,USA,,,80.42,,80.42,2
Marsha Goodman,F,D,Master 47-53 Women,67.5,Single-ply,AZ,USA,,,92.4,,92.4,1
Pamela Michaels-Olson,F,D,Master 47-53 Women,75,Single-ply,WA,USA,,,162.39,,162.39,1
Elizabeth Harwood,F,D,Master 47-53 Women,75,Single-ply,WA,USA,,,149.91,,149.91,2
Sheri Klocke,F,D,Master 47-53 Women,75,Single-ply,OR,USA,,,149.91,,149.91,3
Margie Huston,F,D,Master 47-53 Women,90+,Single-ply,WA,USA,,,142.43,,142.43,1
Mary Rubcic-Tawzer,F,D,Master 47-53 Women,90+,Single-ply,CA,USA,,,114.99,,114.99,2
Ita Pantilat,F,D,Master 54-60 Women,52,Single-ply,WA,USA,,,129.95,,129.95,1
Marilyn Lewis,F,D,Master 54-60 Women,90+,Single-ply,WA,USA,,,159.89,,159.89,1
Kathy Cash,F,D,Master 54-60 Women,90+,Single-ply,OR,USA,,,139.93,,139.93,2
Betty Lafferty,F,D,Master 61-67 Women,48,Single-ply,AL,USA,,,92.4,94.89,92.4,1
Gayle Clawson,F,D,Master 61-67 Women,75,Single-ply,AZ,USA,,,144.92,,144.92,1
Dana Backiel,F,D,Master 61-67 Women,75,Single-ply,WA,USA,,,139.93,,139.93,2
Judith Petray,F,D,Master 61-67 Women,75,Single-ply,CA,USA,,,129.95,,129.95,3
Nora Smiriga,F,D,Master 68-74 Women,56,Single-ply,CA,USA,,,97.39,102.38,97.39,1
Winifred Pristell,F,D,Master 68-74 Women,90+,Single-ply,WA,USA,,,122.47,,122.47,1
Malvina Basso,F,D,Master 75-79 Women,60,Single-ply,,BRA,,,69.94,75.43,69.94,1
Laurie Lamp,F,D,Law-Fire Open Women,56,Single-ply,WA,USA,,,110,,110,1
Robyn Peterson,F,D,Law-Fire Open Women,82.5,Single-ply,AZ,USA,,,114.99,,114.99,1
Leticia Rosales-Buie,F,D,Law-Fire 40-47 Women,56,Single-ply,CA,USA,,,129.95,,129.95,1
Kris Pruitt,F,D,Law-Fire 40-47 Women,90+,Single-ply,WA,USA,,,119.98,,119.98,1
