Name,Age,Sex,Division,BodyweightKg,WeightClassKg,Squat1Kg,Squat2Kg,Squat3Kg,Best3SquatKg,Bench1Kg,Bench2Kg,Bench3Kg,Best3BenchKg,Deadlift1Kg,Deadlift2Kg,Deadlift3Kg,Best3DeadliftKg,Deadlift4Kg,TotalKg,Event,Equipment,Place
Kristos Papanotis,19,M,Open,67.5,67.5,240,260,265,265,117.5,125,130,130,250,280,285,285,300,680,SBD,Wraps,1
Yamsin Towill,27,F,Open,57.52,60,80,85,-90,85,-60,62.5,-65,62.5,100,105,107.5,107.5,,255,SBD,Wraps,2
Michelle Koen,33,F,Open,59.78,60,102.5,112.5,-117.5,112.5,60,-65,-65,60,120,127.5,-132.5,127.5,,300,SBD,Wraps,1
Sarah Williams,28,F,Open,103.8,90+,137.5,150,155,155,65,70,-75,70,137.5,150,155,155,,380,SBD,Wraps,1
Leana Mulyono,23,F,Open,66.36,67.5,120,130,140,140,-62.5,65,70,70,140,150,-157.5,150,,360,SBD,Wraps,2
Jac Quarisa,26,F,Open,65.16,67.5,105,117.5,125,125,62.5,67.5,70,70,140,150,165,165,,360,SBD,Wraps,1
Beaudean John Lines,29,M,Open,85.86,90,165,180,-190,180,105,-115,-115,105,200,215,-222.5,215,,500,SBD,Wraps,1
Dean Myall,30,M,Open,90.5,100,140,150,160,160,130,140,-147.5,140,205,220,225,225,,525,SBD,Wraps,2
Nick Skewes,26,M,Open,99.82,100,190,200,210,210,120,130,-135,130,220,232.5,-240,232.5,,572.5,SBD,Wraps,1
