Place,Name,BirthYear,WeightClassKg,BodyweightKg,Country,Bench1Kg,Bench2Kg,Bench3Kg,Best3BenchKg,TotalKg,Division,Sex,Event,Equipment
1,Silviane Bechar,1959,44,43.6,France,-70,70,75,75,75,Masters 1,F,B,Single-ply
2,Mara Montano,1960,44,43,Italy,55,60,-65,60,60,Masters 1,F,B,Single-ply
3,Hannelore Kovács,1957,44,43,Hungary,47.5,50,-52.5,50,50,Masters 1,F,B,Single-ply
1,Vuokko Viitasaari,1954,48,47.65,Finland,65,70,75,75,75,Masters 1,F,B,Single-ply
2,Irmeli Vaulakorpi,1954,48,47.7,Finland,60,65,-67.5,65,65,Masters 1,F,B,Single-ply
1,Aira Knutars,1954,52,50.8,Finland,72.5,77.5,-80,77.5,77.5,Masters 1,F,B,Single-ply
2,Karin Engelbrecht,1956,52,50.1,Germany,,75,-77.5,75,75,Masters 1,F,B,Single-ply
3,Lusette Desfarges,1957,52,51.5,France,-70,-70,70,70,70,Masters 1,F,B,Single-ply
1,Toni Hollis,1954,56,55.9,Britain,90,92.5,95,95,95,Masters 1,F,B,Single-ply
2,Raija Toivo,1961,56,54.1,Finland,82.5,87.5,-92.5,87.5,87.5,Masters 1,F,B,Single-ply
3,Catherine Czachor,1958,56,55.5,France,-80,80,85,85,85,Masters 1,F,B,Single-ply
4,Dina Nowka,1956,56,54.4,Germany,67.5,70,-72.5,70,70,Masters 1,F,B,Single-ply
5,Päivi Bodbacka,1961,56,54.5,Finland,-62.5,62.5,70,70,70,Masters 1,F,B,Single-ply
1,Daniele Taret,1958,60,58.9,France,87.5,92.5,100,100,100,Masters 1,F,B,Single-ply
2,Bett Eschelbacher,1959,60,59.5,Germany,-82.5,82.5,87.5,87.5,87.5,Masters 1,F,B,Single-ply
3,Paola Guidi,1962,60,56.9,Italy,65,70,-72.5,70,70,Masters 1,F,B,Single-ply
1,Evelyne Herbin,1956,67.5,66.2,France,85,92.5,95,95,95,Masters 1,F,B,Single-ply
2,Inkeri Malassu,1958,67.5,61.8,Finland,65,70,77.5,77.5,77.5,Masters 1,F,B,Single-ply
1,Hana Takáčová,1954,75,74.2,Czechia,110,118,120,120,120,Masters 1,F,B,Single-ply
1,Tatyan Ponomareva,1962,82.5,81.2,Russia,85,90,92.5,92.5,92.5,Masters 1,F,B,Single-ply
2,Sirpa Kokkonen,1958,82.5,75.8,Finland,65,75,80,80,80,Masters 1,F,B,Single-ply
1,Eva Speth,1954,90,83.3,Germany,107.5,110,-112.5,110,110,Masters 1,F,B,Single-ply
1,Merja Mynttinen,1958,90+,104.2,Finland,90,95,100,100,100,Masters 1,F,B,Single-ply
2,Angelique Conrads,1960,90+,91.6,Sweden,80,85,90,90,90,Masters 1,F,B,Single-ply
1,Claudine Lacombe,1951,44,41.7,France,55,58.5,-60,58.5,58.5,Masters 2,F,B,Single-ply
1,Eva Orenicová,1951,48,47.8,Slovakia,60,65,72.5,72.5,72.5,Masters 2,F,B,Single-ply
2,Seija Turunen,1947,48,47.1,Finland,,57.5,-60,57.5,57.5,Masters 2,F,B,Single-ply
3,Ghylaine Debacker,1949,48,47.8,France,47.5,50,-57.5,50,50,Masters 2,F,B,Single-ply
1,Françoise Heligon,1943,52,48.05,France,57.5,60,-62.5,60,60,Masters 2,F,B,Single-ply
1,Dadezhda Uvachan,1944,56,55.2,Russia,-67.5,67.5,-70,67.5,67.5,Masters 2,F,B,Single-ply
2,Eila Kumpuniemi,1942,56,53.4,Finland,60,65,-67.5,65,65,Masters 2,F,B,Single-ply
DQ,Carmen Genermont,1948,56,55.5,France,-62.5,-62.5,-62.5,,,Masters 2,F,B,Single-ply
1,Aly Keizer,1951,60,59.8,Netherlands,80,82.5,85,85,85,Masters 2,F,B,Single-ply
2,Adina Hyková,1943,60,59,Czechia,75,77.5,-80,77.5,77.5,Masters 2,F,B,Single-ply
1,Sinikka Järvenpää,1951,67.5,66.6,Finland,87.5,90,-92.5,90,90,Masters 2,F,B,Single-ply
2,Tonia Strik,1950,67.5,60.3,Netherlands,72.5,75,77.5,77.5,77.5,Masters 2,F,B,Single-ply
3,Doris Pyrasch,1951,67.5,64.8,Germany,72.5,-75,-75,72.5,72.5,Masters 2,F,B,Single-ply
1,Joke van der Meulen,1951,75,69.4,Netherlands,80,85,-87.5,85,85,Masters 2,F,B,Single-ply
2,Erika Wimmer,1940,75,67.7,Germany,57.5,-60,-60,57.5,57.5,Masters 2,F,B,Single-ply
1,Roswith Kendziora,1951,90+,99.9,Germany,-65,65,-70,65,65,Masters 2,F,B,Single-ply
1,Josef Fenzl,1960,52,51.8,Austria,45,55,57.5,57.5,57.5,Masters 1,M,B,Single-ply
1,Alexandr Moiseev,1954,56,55.6,Belarus,-95,95,100,100,100,Masters 1,M,B,Single-ply
2,Manfred Gilgert,1959,56,54.9,Germany,77.5,80,-85,80,80,Masters 1,M,B,Single-ply
1,Henry Hellmich,1956,60,59.8,Germany,115,120,-125,120,120,Masters 1,M,B,Single-ply
2,Marek Gabrysz,1956,60,59,Poland,95,102.5,105,105,105,Masters 1,M,B,Single-ply
3,Gennadiy Vasyliev,1952,60,59,Ukraine,100,-105,-107.5,100,100,Masters 1,M,B,Single-ply
1,Pekka Kihlström,1959,67.5,67.2,Sweden,155,162.5,167.5,167.5,167.5,Masters 1,M,B,Single-ply
2,Peter Muigg,1958,67.5,66.5,Austria,137.5,140,142.5,142.5,142.5,Masters 1,M,B,Single-ply
3,Mirza Zia,1956,67.5,64.4,Britain,135,-140,140,140,140,Masters 1,M,B,Single-ply
4,Jouko Kastergren,1954,67.5,67.4,Finland,-135,,135,135,135,Masters 1,M,B,Single-ply
5,Gerhard Reiter,1956,67.5,67.3,Austria,-125,125,-137.5,125,125,Masters 1,M,B,Single-ply
6,Birger Sundstoel,1954,67.5,66.9,Norway,110,115,-120,115,115,Masters 1,M,B,Single-ply
DQ,Janos Beczö,1957,67.5,66.3,Hungary,-130,-135,-140,,,Masters 1,M,B,Single-ply
1,Kari Veid,1961,75,74.7,Finland,175,182.5,187.5,187.5,187.5,Masters 1,M,B,Single-ply
2,Erik Rasmussen,1962,75,74.8,Denmark,172.5,177.5,-185,177.5,177.5,Masters 1,M,B,Single-ply
3,Bruno Lespoix,1956,75,74.55,France,170,-175,-180,170,170,Masters 1,M,B,Single-ply
4,Tomáš Ježek,1960,75,73.9,Czechia,160,167.5,-177.5,167.5,167.5,Masters 1,M,B,Single-ply
5,Alain Riviere,1960,75,74.5,France,157.5,-162.5,-162.5,157.5,157.5,Masters 1,M,B,Single-ply
6,Karsten Gelhar,1957,75,74.4,Germany,145,152.5,-157.5,152.5,152.5,Masters 1,M,B,Single-ply
7,Jiří Janeček,1961,75,74.3,Czechia,150,-155,-155,150,150,Masters 1,M,B,Single-ply
8,Norber Kreuzhuber,1956,75,73.5,Austria,145,-150,-155,145,145,Masters 1,M,B,Single-ply
9,Lars Midtboe,1956,75,72.4,Norway,135,-140,140,140,140,Masters 1,M,B,Single-ply
DQ,Gerhard Leierzopf,1961,75,73.2,Austria,-160,-162.5,-162.5,,,Masters 1,M,B,Single-ply
1,Didier Compain,1959,82.5,81.4,France,195,-200,-200,195,195,Masters 1,M,B,Single-ply
2,Christ Petrischor,1959,82.5,80.1,Austria,-190,-190,190,190,190,Masters 1,M,B,Single-ply
3,Paul Smit,1956,82.5,80,Netherlands,175,180,185,185,185,Masters 1,M,B,Single-ply
4,Werner Fakler,1959,82.5,81.8,Germany,180,185,-190,185,185,Masters 1,M,B,Single-ply
5,Michael Sekot,1961,82.5,82.1,Czechia,170,177.5,-185,177.5,177.5,Masters 1,M,B,Single-ply
6,Per Berndorf,1960,82.5,82.1,Denmark,165,175,177.5,177.5,177.5,Masters 1,M,B,Single-ply
7,Stanislav Hoza,1956,82.5,81.9,Czechia,165,-172.5,175,175,175,Masters 1,M,B,Single-ply
8,Joern Kroken,1962,82.5,81.8,Norway,170,-175,-175,170,170,Masters 1,M,B,Single-ply
9,Patrick Mathias,1961,82.5,81.9,France,155,162.5,167.5,167.5,167.5,Masters 1,M,B,Single-ply
10,Philip Guise,1959,82.5,81.8,Britain,155,160,162.5,162.5,162.5,Masters 1,M,B,Single-ply
11,Glenn Ljunggren,1960,82.5,81.11,Sweden,130,-140,140,140,140,Masters 1,M,B,Single-ply
1,Petr Theuser,1961,90,89.7,Czechia,-215,215,220,220,220,Masters 1,M,B,Single-ply
2,Jan Graczyk,1959,90,88.2,Poland,200,205,-215,205,205,Masters 1,M,B,Single-ply
3,Klaus-Diete Jacob,1961,90,89.2,Germany,195,202.5,-207.5,202.5,202.5,Masters 1,M,B,Single-ply
4,Joel Roulot,1961,90,87.9,France,185,192.5,-197.5,192.5,192.5,Masters 1,M,B,Single-ply
5,Lothar Pritzl,1959,90,87.6,Germany,185,190,-197.5,190,190,Masters 1,M,B,Single-ply
6,Antti Koskela,1961,90,89.7,Finland,185,190,-207.5,190,190,Masters 1,M,B,Single-ply
7,Milan Svoboda,1960,90,86.7,Czechia,170,180,185,185,185,Masters 1,M,B,Single-ply
8,Brett Hardy,1957,90,87.9,Britain,170,177.5,185,185,185,Masters 1,M,B,Single-ply
9,Harvey Neville,1956,90,88.4,Britain,170,175,-180,175,175,Masters 1,M,B,Single-ply
1,Vladimir Volkov,1959,100,91.9,Russia,210,220,225,225,225,Masters 1,M,B,Single-ply
2,Istvan Agoston,1962,100,99.4,Hungary,215,-222.5,-227.5,215,215,Masters 1,M,B,Single-ply
3,Jean-Pierre Aymon,1954,100,99.5,Switzerland,-210,-210,210,210,210,Masters 1,M,B,Single-ply
4,Roger Haraldsson,1960,100,97.5,Sweden,195,202.5,207.5,207.5,207.5,Masters 1,M,B,Single-ply
5,Gerhard Schranz,1955,100,99.7,Austria,195,205,-210,205,205,Masters 1,M,B,Single-ply
6,Stanislas Couchy,1953,100,98.7,France,190,197.5,202.5,202.5,202.5,Masters 1,M,B,Single-ply
7,Markku Patova,1962,100,99.1,Finland,190,200,-207.5,200,200,Masters 1,M,B,Single-ply
8,Jerzy Chlechowicz,1955,100,90.6,Poland,195,-205,-205,195,195,Masters 1,M,B,Single-ply
9,Uwe Wulf,1956,100,98.2,Germany,195,-202.5,-205,195,195,Masters 1,M,B,Single-ply
10,Harri Hagfors,1961,100,97.5,Finland,180,-190,-197.5,180,180,Masters 1,M,B,Single-ply
1,Alexandre Koblov,1956,110,109.6,Russia,227.5,232.5,237.5,237.5,237.5,Masters 1,M,B,Single-ply
2,Fred Jahnke,1957,110,107.7,Germany,220,230,-235,230,230,Masters 1,M,B,Single-ply
3,Vladimir Shibaev,1960,110,107.8,Russia,220,-225,-225,220,220,Masters 1,M,B,Single-ply
4,Zoltán Kanát,1962,110,108.6,Czechia,200,207.5,-222.5,207.5,207.5,Masters 1,M,B,Single-ply
5,Kjell Sollien,1958,110,109.2,Norway,185,-192.5,-192.5,185,185,Masters 1,M,B,Single-ply
6,Julian Massey,1956,110,109.7,Britain,160,170,172.5,172.5,172.5,Masters 1,M,B,Single-ply
7,Jaroslav Wožniak,1955,110,105.4,Czechia,170,-175,-185,170,170,Masters 1,M,B,Single-ply
DQ,Kari Vilppola,1955,110,109.5,Finland,-202.5,-202.5,,,,Masters 1,M,B,Single-ply
1,Massimo Papini,1957,125,121.4,Italy,250,257.5,-262.5,257.5,257.5,Masters 1,M,B,Single-ply
2,Jerzy Romanek,1959,125,120.3,Poland,212.5,217.5,225,225,225,Masters 1,M,B,Single-ply
3,Esa Jantunen,1961,125,123.4,Finland,210,220,225,225,225,Masters 1,M,B,Single-ply
4,Vidar Ringvold,1955,125,116.4,Norway,205,215,222.5,222.5,222.5,Masters 1,M,B,Single-ply
5,Eberhard Schwanke,1953,125,122.6,Germany,200,-215,-225,200,200,Masters 1,M,B,Single-ply
6,Wieslaw Tochaczek,1960,125,121.9,Poland,-120,125,-132.5,125,125,Masters 1,M,B,Single-ply
DD,Truls Nygaard,1956,125,124.2,Norway,215,222.5,230,230,,Masters 1,M,B,Single-ply
1,Vladimi Simonenko,1960,125+,125.5,Russia,232.5,-240,240,240,240,Masters 1,M,B,Single-ply
2,Tibor Bak,1957,125+,133,Hungary,210,222.5,227.5,227.5,227.5,Masters 1,M,B,Single-ply
3,Piotr Pawlik,1955,125+,132,Poland,210,215,222.5,222.5,222.5,Masters 1,M,B,Single-ply
4,Veli-P Kaunismäki,1960,125+,134.2,Finland,180,202.5,207.5,207.5,207.5,Masters 1,M,B,Single-ply
5,Arto Hannolin,1956,125+,125.2,Finland,195,-202.5,202.5,202.5,202.5,Masters 1,M,B,Single-ply
6,Richard Fricker,1961,125+,145,Britain,185,202.5,-207.5,202.5,202.5,Masters 1,M,B,Single-ply
7,Milan Mrázek,1958,125+,129.6,Czechia,170,180,-197.5,180,180,Masters 1,M,B,Single-ply
1,Czeslaw Kedziora,1951,56,55.9,Poland,95,102.5,105,105,105,Masters 2,M,B,Single-ply
1,Burkhard Steffen,1950,60,59.9,Germany,110,112.5,-115,112.5,112.5,Masters 2,M,B,Single-ply
DQ,Joachim Lietzau,1950,60,59.7,Germany,-107.5,-107.5,-107.5,,,Masters 2,M,B,Single-ply
1,Rudolf Böhm,1952,67.5,66,Czechia,142.5,147.5,150,150,150,Masters 2,M,B,Single-ply
2,Ernst Klewe,1950,67.5,66.2,Germany,-135,135,142.5,142.5,142.5,Masters 2,M,B,Single-ply
3,James Mick,1949,67.5,67.3,Britain,-140,140,142.5,142.5,142.5,Masters 2,M,B,Single-ply
4,Jacques Bette,1950,67.5,66.5,France,135,140,-142.5,140,140,Masters 2,M,B,Single-ply
5,Jozsef Kapor,1951,67.5,66.5,Hungary,140,-150,-150,140,140,Masters 2,M,B,Single-ply
6,Daniel Epineau,1943,67.5,66.2,France,130,-135,135,135,135,Masters 2,M,B,Single-ply
7,Juha Inkinen,1948,67.5,67,Finland,-132.5,132.5,-137.5,132.5,132.5,Masters 2,M,B,Single-ply
1,Rainer Thomas,1950,75,74.1,Germany,157.5,160,162.5,162.5,162.5,Masters 2,M,B,Single-ply
2,Allan Eriksson,1946,75,74.5,Sweden,152.5,157.5,-162.5,157.5,157.5,Masters 2,M,B,Single-ply
3,Joannio Sulime,1951,75,73.2,France,145,-150,-150,145,145,Masters 2,M,B,Single-ply
4,Matti Räihä,1943,75,74.3,Finland,140,145,-150,145,145,Masters 2,M,B,Single-ply
5,Sergey Nikoforov,1944,75,74.4,Russia,132.5,140,145,145,145,Masters 2,M,B,Single-ply
6,Attila Jaloweczki,1947,75,74.5,Hungary,-145,145,-152.5,145,145,Masters 2,M,B,Single-ply
7,Antonín Soušek,1946,75,72.5,Czechia,142.5,-147.5,-150,142.5,142.5,Masters 2,M,B,Single-ply
8,Stan Macrow,1949,75,72.9,Britain,135,-140,-140,135,135,Masters 2,M,B,Single-ply
DQ,Rene Doubel,1945,75,73.9,France,-150,-150,-150,,,Masters 2,M,B,Single-ply
1,Taisto Paananen,1949,82.5,81.6,Finland,170,177.5,-180,177.5,177.5,Masters 2,M,B,Single-ply
2,Edmund Lechowicz,1949,82.5,81.3,Poland,155,160,165,165,165,Masters 2,M,B,Single-ply
3,Rachid Amalou,1950,82.5,82.2,France,147.5,152.5,-155,152.5,152.5,Masters 2,M,B,Single-ply
4,Frantise Kirchenr,1948,82.5,79,Czechia,-130,130,-135,130,130,Masters 2,M,B,Single-ply
5,Karel Olič,1947,82.5,80.7,Czechia,120,130,-135,130,130,Masters 2,M,B,Single-ply
1,Marek Markwat,1952,90,87.6,Poland,195,-200,206,206,206,Masters 2,M,B,Single-ply
2,Usko Paananen,1948,90,89.2,Sweden,180,185,-187.5,185,185,Masters 2,M,B,Single-ply
3,Yaroslav Chala,1948,90,89.1,Ukraine,177.5,-185,-187.5,177.5,177.5,Masters 2,M,B,Single-ply
4,Hans-Juer Pietsch,1948,90,87.9,Germany,-175,175,-180,175,175,Masters 2,M,B,Single-ply
5,Jens Klüver,1948,90,89.4,Denmark,160,170,-180,170,170,Masters 2,M,B,Single-ply
6,Suke Huovinen,1950,90,89.3,Finland,-152.5,152.5,157.5,157.5,157.5,Masters 2,M,B,Single-ply
7,Ketil Hodne,1947,90,87.1,Norway,132.5,-137.5,-140,132.5,132.5,Masters 2,M,B,Single-ply
DQ,Sven Thörngren,1950,90,87.5,Sweden,-177.5,,,,,Masters 2,M,B,Single-ply
DQ,Demirel Yücel,1944,90,88.8,Germany,-155,-155,-155,,,Masters 2,M,B,Single-ply
1,Jerzy Furmanek,1952,100,99.1,Poland,230,-240,,230,230,Masters 2,M,B,Single-ply
2,Jack Kromkamp,1943,100,98.8,Netherlands,195,200,202.5,202.5,202.5,Masters 2,M,B,Single-ply
3,Anders Carlsson,1948,100,98.7,Sweden,195,200,-205,200,200,Masters 2,M,B,Single-ply
4,Wojciec Grabowski,1951,100,96.7,Poland,190,-197.5,-200,190,190,Masters 2,M,B,Single-ply
5,Ulrich Vetter,1952,100,98.4,Germany,190,-195,-197.5,190,190,Masters 2,M,B,Single-ply
6,Vasiliy Mazhuta,1947,100,99.2,Russia,162.5,170,175,175,175,Masters 2,M,B,Single-ply
7,Václav Primus,1948,100,97.8,Czechia,137.5,142.5,145,145,145,Masters 2,M,B,Single-ply
8,Tapani Mielty,1946,100,98.6,Finland,130,-140,-140,130,130,Masters 2,M,B,Single-ply
1,Luboš Maršík,1952,110,100.1,Czechia,210,215.5,-217.5,215.5,215.5,Masters 2,M,B,Single-ply
2,Esa Leskinen,1951,110,101.9,Finland,200,207.5,-217.5,207.5,207.5,Masters 2,M,B,Single-ply
3,Fred Anneese,1947,110,107.4,Netherlands,190,-192.5,-192.5,190,190,Masters 2,M,B,Single-ply
4,Robert Oeren,1950,110,108.2,Norway,170,180,185,185,185,Masters 2,M,B,Single-ply
5,Christer Nylund,1944,110,108.5,Finland,,-182.5,-182.5,182.5,182.5,Masters 2,M,B,Single-ply
6,Stanislav Maroň,1951,110,108.4,Czechia,170,180,-182.5,180,180,Masters 2,M,B,Single-ply
7,Wolfgang Siewert,1945,110,108.8,Germany,180,-187.5,-187.5,180,180,Masters 2,M,B,Single-ply
8,Allan Fuglgang,1950,110,106.55,Denmark,160,172.5,-180,172.5,172.5,Masters 2,M,B,Single-ply
9,Ken Crickemore,1948,110,105.9,Britain,155,162.5,165,165,165,Masters 2,M,B,Single-ply
1,Antonín Šota,1952,125,121.2,Czechia,210,215,-230.5,215,215,Masters 2,M,B,Single-ply
2,Niilo Maliniemi,1947,125,114.1,Sweden,-200,200,-215,200,200,Masters 2,M,B,Single-ply
3,Per Åge Madsen,1951,125,122.7,Norway,-195,195,-200,195,195,Masters 2,M,B,Single-ply
4,Kurt Nygård,1946,125,111.1,Finland,182.5,-190,-190,182.5,182.5,Masters 2,M,B,Single-ply
5,Alexandr Kolář,1943,125,110.4,Czechia,165,-170,-172.5,165,165,Masters 2,M,B,Single-ply
6,Georg Boström,1947,125,112.7,Sweden,120,,,120,120,Masters 2,M,B,Single-ply
1,Bohumil Váňa,1951,125+,125.2,Czechia,230,240,-245,240,240,Masters 2,M,B,Single-ply
2,Raimo Aulis Sipiläinen,1949,125+,129,Finland,-197.5,-197.5,197.5,197.5,197.5,Masters 2,M,B,Single-ply
3,Karl-Heinz Voscul,1949,125+,132.4,Germany,-180,-180,180,180,180,Masters 2,M,B,Single-ply
1,Olli Vento,1933,67.5,66.9,Finland,75,82.5,-90,82.5,82.5,Masters 3,M,B,Single-ply
1,Louis Volnin,1936,75,72.7,France,-130,130,135,135,135,Masters 3,M,B,Single-ply
2,Attila Siklosi,1942,75,74.3,Hungary,130,135,-140,135,135,Masters 3,M,B,Single-ply
3,David Wallis,1936,75,72.9,Britain,115,122.5,127.5,127.5,127.5,Masters 3,M,B,Single-ply
4,Rolf Halvorsen,1941,75,69.7,Norway,110,-117.5,122.5,122.5,122.5,Masters 3,M,B,Single-ply
5,Josef Wimmer,1936,75,73.7,Germany,105,-110,-110,105,105,Masters 3,M,B,Single-ply
1,William McFadyen,1934,82.5,81.8,Britain,167.5,-170,-170,167.5,167.5,Masters 3,M,B,Single-ply
2,Niilo Tarvainen,1940,82.5,81.6,Finland,150,155,-167.5,155,155,Masters 3,M,B,Single-ply
3,Rene Germany,1941,82.5,80.8,France,140,-150,150,150,150,Masters 3,M,B,Single-ply
4,Norman Andersen,1937,82.5,81.4,Britain,-127.5,132.5,135,135,135,Masters 3,M,B,Single-ply
5,Vladimir Malyshev,1936,82.5,80.7,Russia,122.5,130,132.5,132.5,132.5,Masters 3,M,B,Single-ply
6,Peer Bjaaland,1942,82.5,81.4,Norway,120,-127.5,-127.5,120,120,Masters 3,M,B,Single-ply
1,Olavi Kallio,1933,90,83.7,Finland,150,155,160,160,160,Masters 3,M,B,Single-ply
2,Jose-Lui Martinez,1939,90,85.2,Spain,147.5,152.5,155,155,155,Masters 3,M,B,Single-ply
3,Wolfga Zimmermann,1941,90,82.6,Czechia,-125,130,135,135,135,Masters 3,M,B,Single-ply
4,Gerd Fell,1938,90,87.2,Germany,125,130,-137.5,130,130,Masters 3,M,B,Single-ply
5,Scott Barrie,1938,90,88.6,Britain,115,120,122.5,122.5,122.5,Masters 3,M,B,Single-ply
1,Marc Lebolay,1938,100,100,France,-182.5,182.5,187.5,187.5,187.5,Masters 3,M,B,Single-ply
2,Leif Waldeck,1939,100,98.6,Sweden,140,145,150,150,150,Masters 3,M,B,Single-ply
3,Jiri Hofirek,1941,100,91,Czechia,125,-130,-130,125,125,Masters 3,M,B,Single-ply
4,Wolfgang Kolditz,1940,100,90.2,Germany,105,-107.5,107.5,107.5,107.5,Masters 3,M,B,Single-ply
DQ,Petr Uher,1934,100,93.2,Czechia,-135,-135,-135,,,Masters 3,M,B,Single-ply
1,Roland Schubert,1940,110,100.7,Germany,195,202.5,205,205,205,Masters 3,M,B,Single-ply
2,Klaus Weber,1935,110,107.4,Germany,150,160,165,165,165,Masters 3,M,B,Single-ply
3,László Kasza,1941,110,108.2,Hungary,150,160,-165,160,160,Masters 3,M,B,Single-ply
1,Egil Engebretsen,1939,125,110.8,Norway,185,-192.5,192.5,192.5,192.5,Masters 3,M,B,Single-ply
2,Peter Schwarz,1940,125,120.6,Germany,180,-187.5,-187.5,180,180,Masters 3,M,B,Single-ply
3,Zdenek Srstka,1935,125,110.4,Czechia,150,160,-170,160,160,Masters 3,M,B,Single-ply
1,Petr Kotchetov,1936,125+,138.3,Russia,-180,180,185,185,185,Masters 3,M,B,Single-ply
2,Raimo Sandelin,1940,125+,126.2,Finland,145,160,-165,160,160,Masters 3,M,B,Single-ply
