Place,Name,BirthYear,Country,BodyweightKg,Squat1Kg,Squat2Kg,Squat3Kg,Best3SquatKg,Bench1Kg,Bench2Kg,Bench3Kg,Best3BenchKg,Deadlift1Kg,Deadlift2Kg,Deadlift3Kg,Best3DeadliftKg,TotalKg,WeightClassKg,Division,Event,Sex,Equipment
1,Raija Koskinen,,Finland,43.95,155,162.5,-167.5,162.5,75,80,-82.5,80,150,157.5,-162.5,157.5,400,44,Open,SBD,F,Single-ply
2,Oksana Ryzhenko,,Russia,43.6,132.5,140,-145,140,82.5,-87.5,87.5,87.5,130,-137.5,-137.5,130,357.5,44,Open,SBD,F,Single-ply
3,Laurence Hernandez,,France,43.5,120,-125,-125,120,65,70,-72.5,70,125,130,-135,130,320,44,Open,SBD,F,Single-ply
4,Marion Friedrich,,Germany,43.6,-112.5,117.5,122.5,122.5,77.5,80,-87.5,80,100,107.5,115,115,317.5,44,Open,SBD,F,Single-ply
5,Monika Korpak,,Poland,43.8,112.5,-120,-120,112.5,57.5,62.5,-67.5,62.5,105,110,115,115,290,44,Open,SBD,F,Single-ply
6,Dorota Nowak,,Poland,44,-105,-105,105,105,60,-65,65,65,100,110,-122.5,110,280,44,Open,SBD,F,Single-ply
1,Svetlana Tesleva,,Russia,47.5,160,170,-175,170,92.5,100,105,105,160,-167.5,-167.5,160,435,48,Open,SBD,F,Single-ply
2,Mervi Sirkiä,,Finland,47.8,135,140,-145,140,85,-90,-90,85,150,155,-160,155,380,48,Open,SBD,F,Single-ply
3,Iryna Trubilina,,Ukraine,47.45,-140,140,-152.5,140,70,75,-77.5,75,147.5,152.5,-155,152.5,367.5,48,Open,SBD,F,Single-ply
4,Sabine Guillaume,,France,47.2,125,135,-140,135,67.5,70,-72.5,70,145,155,157.5,157.5,362.5,48,Open,SBD,F,Single-ply
4,Sanna Apuli,,Finland,47.3,-135,135,-145,135,-70,70,75,75,145,152.5,-157.5,152.5,362.5,48,Open,SBD,F,Single-ply
4,Bénédicte LePanse,,France,47.45,132.5,137.5,142.5,142.5,72.5,80,-82.5,80,132.5,140,-147.5,140,362.5,48,Open,SBD,F,Single-ply
7,Marcela Balogová,,Czechia,47.5,125,-132.5,-132.5,125,-92.5,-92.5,92.5,92.5,132.5,140,-147.5,140,357.5,48,Open,SBD,F,Single-ply
8,Eva Orenicová,,Slovakia,47.45,-110,110,120,120,65,70,-75,70,115,125,130,130,320,48,Open,SBD,F,Single-ply
9,Ines Tronke,,Germany,47.9,105,-115,115,115,65,70,75,75,112.5,120,125,125,315,48,Open,SBD,F,Single-ply
1,Olena Dmytruk,,Ukraine,51.75,175,182.5,187.5,187.5,100,110,120,120,160,170,177.5,177.5,485,52,Open,SBD,F,Single-ply
2,Olesya Lafina,,Russia,51.75,197.5,207.5,212.5,212.5,105,115,122.5,122.5,130,140,147.5,147.5,482.5,52,Open,SBD,F,Single-ply
3,Mervi Anita Rantamäki,,Finland,51.85,-165,167.5,-175,167.5,85,90,92.5,92.5,162.5,172.5,180,180,440,52,Open,SBD,F,Single-ply
4,Stephani Cornette,,France,51.2,165,-180,180,180,85,90,-92.5,90,150,160,167.5,167.5,437.5,52,Open,SBD,F,Single-ply
5,Karin Hollaus,,Austria,51.1,-120,125,130,130,65,70,-72.5,70,132.5,140,-145,140,340,52,Open,SBD,F,Single-ply
6,Agnieszka Marciniak,,Poland,51.2,125,-135,-135,125,70,72.5,-77.5,72.5,125,135,137.5,137.5,335,52,Open,SBD,F,Single-ply
7,Monika Gavorníková,,Slovakia,50.95,-115,115,122.5,122.5,75,80,-85,80,120,127.5,-130,127.5,330,52,Open,SBD,F,Single-ply
8,Maria Pia Salemme,,Italy,51.3,110,115,120,120,55,57.5,-60,57.5,130,140,145,145,322.5,52,Open,SBD,F,Single-ply
9,Ilona Birk,,Hungary,51,90,97.5,-102.5,97.5,-70,-70,70,70,120,-127.5,127.5,127.5,295,52,Open,SBD,F,Single-ply
1,Tatyana Eltsova,,Russia,55.55,190,200,-205,200,120,127.5,132.5,132.5,180,187.5,195,195,527.5,56,Open,SBD,F,Single-ply
2,Tetyana Prymenchuk,,Ukraine,55.25,180,-190,-190,180,115,120,-127.5,120,180,-203,-203,180,480,56,Open,SBD,F,Single-ply
3,Magdolna Petróczki,,Hungary,54.5,145,157.5,162.5,162.5,75,-82.5,82.5,82.5,160,170,175,175,420,56,Open,SBD,F,Single-ply
4,Anna Maniak,,France,55.35,147.5,155,-160,155,87.5,92.5,97.5,97.5,157.5,162.5,-170,162.5,415,56,Open,SBD,F,Single-ply
5,Jenny Hunter,,Britain,55,-130,130,137.5,137.5,85,90,-95,90,140,150,155,155,382.5,56,Open,SBD,F,Single-ply
5,Maria Szymkowiak,,Poland,55.6,135,142.5,150,150,75,80,82.5,82.5,140,147.5,150,150,382.5,56,Open,SBD,F,Single-ply
7,Jadwiga Radwanska,,Poland,55.05,110,-120,-120,110,90,-100,100,100,120,130,-145,130,340,56,Open,SBD,F,Single-ply
8,Zsuzsa Graner,,Hungary,54.9,115,120,-125,120,70,-75,75,75,125,135,140,140,335,56,Open,SBD,F,Single-ply
DQ,Maria Eriksson,,Sweden,54.6,127.5,-137.5,-137.5,127.5,65,70,75,75,-145,-150,-150,,,56,Open,SBD,F,Single-ply
1,Larysa Vitsyevska,,Ukraine,59.7,195,205,212.5,212.5,130,137.5,142.5,142.5,210,220,227.5,227.5,582.5,60,Open,SBD,F,Single-ply
3,Päivi Haapoja,,Finland,59.75,185,-195,-200,185,75,80,,80,172.5,182.5,-190,182.5,447.5,60,Open,SBD,F,Single-ply
4,Rita Nagy,,Hungary,59.3,145,152.5,157.5,157.5,110,-117.5,-117.5,110,155,165,170,170,437.5,60,Open,SBD,F,Single-ply
5,Linda Kåda Høiland,,Norway,59.25,155,165,-170,165,75,80,82.5,82.5,160,175,-180,175,422.5,60,Open,SBD,F,Single-ply
6,Eszter Nagy,,Hungary,58.95,135,145,155,155,75,82.5,-85,82.5,140,150,-157.5,150,387.5,60,Open,SBD,F,Single-ply
7,Daniela Falck,,Germany,60,132.5,-140,-140,132.5,72.5,-75,-75,72.5,165,-170,-170,165,370,60,Open,SBD,F,Single-ply
8,Karolina Bielat,,Poland,59.9,-120,120,-125,120,-60,60,65,65,125,-135,-135,125,310,60,Open,SBD,F,Single-ply
DD,Irina Tatarova,,Russia,59.35,215,-225,225,225,120,130,137.5,137.5,202.5,210,217.5,217.5,,60,Open,SBD,F,Single-ply
DD,Dana Matejov,,Slovakia,59.6,195,205,212.5,212.5,120,127.5,132.5,132.5,170,180,-187.5,180,,60,Open,SBD,F,Single-ply
1,Marina Kudinova,,Russia,67.4,-235,235,242.5,242.5,135,-145,145,145,210,222.5,230,230,617.5,67.5,Open,SBD,F,Single-ply
2,Zhanna Ivanova,,Ukraine,66,-227.5,-227.5,227.5,227.5,125,132.5,137.5,137.5,207.5,215,-222.5,215,580,67.5,Open,SBD,F,Single-ply
3,Tetyana Skrypka,,Ukraine,66.75,190,202.5,-210,202.5,115,127.5,-135,127.5,192.5,202.5,-212.5,202.5,532.5,67.5,Open,SBD,F,Single-ply
4,Gillian Wright,,Britain,66.35,-150,150,160,160,100,105,-110,105,185,195,197.5,197.5,462.5,67.5,Open,SBD,F,Single-ply
5,Bente Arntsen,,Norway,67.15,160,-167.5,-167.5,160,-117.5,117.5,-125,117.5,165,170,-175,170,447.5,67.5,Open,SBD,F,Single-ply
6,Jackie Blasbery,,Britain,67,150,-160,-160,150,90,95,97.5,97.5,170,182.5,-187.5,182.5,430,67.5,Open,SBD,F,Single-ply
7,Anna Dittler,,Hungary,64.9,180,-190,-190,180,85,87.5,-90,87.5,-160,160,-165,160,427.5,67.5,Open,SBD,F,Single-ply
8,Edyta Bosak,,Poland,67,145,-150,-150,145,-115,-115,115,115,-145,145,152.5,152.5,412.5,67.5,Open,SBD,F,Single-ply
9,Laura Adorj,,Hungary,66.55,150,-155,-155,150,85,90,-95,90,160,167.5,-172.5,167.5,407.5,67.5,Open,SBD,F,Single-ply
10,Maria Johage,,Sweden,62.6,140,150,-157.5,150,-90,90,-95,90,140,160,-170,160,400,67.5,Open,SBD,F,Single-ply
11,Inna Terasmaa,,Estonia,66.25,135,142.5,-150,142.5,90,-95,-95,90,145,152.5,162.5,162.5,395,67.5,Open,SBD,F,Single-ply
1,Anna Terentyeva,,Russia,74.65,215,225,-230,225,150,160,165,165,210,217.5,-225,217.5,607.5,75,Open,SBD,F,Single-ply
2,Lesia Huminska,,Ukraine,69.45,215,225,235,235,122.5,130,-135,130,215,225,-242.5,225,590,75,Open,SBD,F,Single-ply
3,Inger Blikra,,Norway,73.8,210,220,225,225,115,120,125,125,200,215,220,220,570,75,Open,SBD,F,Single-ply
4,Antonietta Orsini,,Italy,68.05,200,210,215,215,125,-132.5,132.5,132.5,205,-215,-217.5,205,552.5,75,Open,SBD,F,Single-ply
5,Marian Gibson,,Britain,72.05,185,200,-205,200,132.5,140,142.5,142.5,185,192.5,-200,192.5,535,75,Open,SBD,F,Single-ply
6,Linda Kristensen,,Norway,72.45,185,195,200,200,105,110,115,115,175,-180,-180,175,490,75,Open,SBD,F,Single-ply
7,Eva-Maria Gall,,Germany,71.9,152.5,160,165,165,110,117.5,-122.5,117.5,185,190,192.5,192.5,475,75,Open,SBD,F,Single-ply
7,Ingrid Vidiscakova,,Slovakia,73.8,185,192.5,200,200,95,102.5,-107.5,102.5,152.5,162.5,172.5,172.5,475,75,Open,SBD,F,Single-ply
9,Mariet Spronk,,Netherlands,72.05,147.5,152.5,-155,152.5,107.5,112.5,-115,112.5,170,180,185,185,450,75,Open,SBD,F,Single-ply
10,Lena Tjäder,,Sweden,70.7,140,-147.5,-147.5,140,95,-100,100,100,135,-142.5,-142.5,135,375,75,Open,SBD,F,Single-ply
1,Alexandra Murashova,,Russia,81.9,235,245,255,255,130,137.5,-140,137.5,220,235,-247.5,235,627.5,82.5,Open,SBD,F,Single-ply
2,Ielja Strik,,Netherlands,82,230,-237.5,-237.5,230,150,-157.5,-157.5,150,200,-220,-220,200,580,82.5,Open,SBD,F,Single-ply
3,Monica Porter,,Britain,81.2,207.5,-215,-215,207.5,115,122.5,127.5,127.5,210,220,-225,220,555,82.5,Open,SBD,F,Single-ply
4,Malin Eriksson,,Sweden,77.35,200,-215,-215,200,105,115,120,120,180,-210,-210,180,500,82.5,Open,SBD,F,Single-ply
5,Jana Sedláčková,,Slovakia,75.3,170,180,187.5,187.5,85,-92.5,95,95,190,202.5,210,210,492.5,82.5,Open,SBD,F,Single-ply
6,Takamaa Leena,,Sweden,77.8,157.5,165,170,170,-90,90,-100,90,160,167.5,177.5,177.5,437.5,82.5,Open,SBD,F,Single-ply
1,Inna Orobets,,Ukraine,89.6,242.5,-252.5,252.5,252.5,162.5,170,-173,170,205,212.5,-220,212.5,635,90,Open,SBD,F,Single-ply
2,Yulia Kurina,,Russia,82.9,230,250,260,260,125,135,-140,135,190,205,-212.5,205,600,90,Open,SBD,F,Single-ply
3,Katarina Kardosová,,Slovakia,89.65,175,185,192.5,192.5,127.5,137.5,-142.5,137.5,160,185,-200,185,515,90,Open,SBD,F,Single-ply
4,Agnieszka Malowska-Wilczanowska,,Poland,84.2,145,-155,155,155,90,95,-97.5,95,135,145,150,150,400,90,Open,SBD,F,Single-ply
5,Anita Rasekn Standinger,,Hungary,83.6,130,140,-147.5,140,90,-97.5,97.5,97.5,120,130,-140,130,367.5,90,Open,SBD,F,Single-ply
1,Galina Karpova,,Russia,121.75,260,275,290.5,290.5,160,170,180.5,180.5,220,230,240,240,711,90+,Open,SBD,F,Single-ply
2,Joanne Schaefer,,Netherlands,104.4,215,225,-235,225,145,150,152.5,152.5,190,202.5,210,210,587.5,90+,Open,SBD,F,Single-ply
3,Brenda van der Meulen,,Netherlands,103.35,200,210,215,215,140,147.5,150,150,170,180,185,185,550,90+,Open,SBD,F,Single-ply
4,Ulrike Herchenhein,,Germany,91.4,182.5,195,200,200,120,-127.5,-127.5,120,210,222.5,-225,222.5,542.5,90+,Open,SBD,F,Single-ply
5,Suzanne Last,,Britain,117.45,-185,-185,185,185,110,117.5,-122.5,117.5,165,-172.5,-172.5,165,467.5,90+,Open,SBD,F,Single-ply
6,Malin Vikberg,,Sweden,92.55,135,155,162.5,162.5,102.5,110,117.5,117.5,150,165,-177.5,165,445,90+,Open,SBD,F,Single-ply
7,Eszter Szollos,,Hungary,100.8,105,115,122.5,122.5,75,80,-85,80,125,135,142.5,142.5,345,90+,Open,SBD,F,Single-ply
