Division,Name,WeightClassKg,Sex,BirthYear,Country,BodyweightKg,Bench1Kg,Bench2Kg,Bench3Kg,Best3BenchKg,TotalKg,Event,Equipment,Place
Open,Patrícia R.B. Silva,52,F,1984,Brasil,51.7,67.5,70,-75,70,70,B,Single-ply,1
Masters 2,Christine Suzan Wender,57,F,1955,Brasil,56.4,72.5,77.5,80,80,80,B,Single-ply,1
Open,Neusa de Brito Xavier,63,F,1967,Brasil,59,90,-95,95,95,95,B,Single-ply,1
Sub-Juniors,Camila Barbatano,63,F,,Brasil,58.9,80,87.5,-95,87.5,87.5,B,Single-ply,1
Open,Cristiane Batista da Silva,72,F,1977,Brasil,69.9,100,-105,-105,100,100,B,Single-ply,1
Masters 1,Jane Cuaglio,72,F,1971,Brasil,70.9,70,75,77.5,77.5,77.5,B,Single-ply,1
Open,Cristina Aparecida de Toledo,84,F,1965,Brasil,76.3,92.5,-97.5,-97.5,92.5,92.5,B,Single-ply,2
Open,Natalia Pereira,84,F,1981,Uruguay,82.7,105,-112.5,-112.5,105,105,B,Single-ply,1
Open,Judith Reitmann,84+,F,1967,Uruguay,86.8,115,122.5,-130,122.5,122.5,B,Single-ply,1
Open,Fábio Rogério Marques,59,M,1976,Brasil,59,150,-160,-165,150,150,B,Single-ply,1
Open,André Garcia,66,M,1982,Brasil,66,-175,175,-187.5,175,175,B,Single-ply,1
Masters 1,Jose Luis Inguanti,66,M,1963,Argentina,65.7,165,170,-172.5,170,170,B,Single-ply,1
Masters 1,Anderson Fehr,66,M,,Brasil,63.4,-130,-130,130,130,130,B,Single-ply,2
Masters 2,Julio Cesar Chura,66,M,1946,Peru,65.7,-100,100,115,115,115,B,Single-ply,1
Open,Daniel Augusto dos Santos,74,M,1985,Brasil,73.8,165,-172.5,-175,165,165,B,Single-ply,1
Juniors,Sérgio Alves,74,M,1990,Brasil,72.1,135,170,-190,170,170,B,Single-ply,1
Juniors,Jony Rosas,74,M,1989,Uruguay,69.9,150,160,165,165,165,B,Single-ply,2
Juniors,Fernando Satyro Camargo,74,M,1989,Brasil,73.9,130,160,-167.5,160,160,B,Single-ply,3
Sub-Juniors,Paulo Guilherme de Campos,74,M,1994,Brasil,68.9,130,-140,-140,130,130,B,Single-ply,1
Masters 1,Abraão José,74,M,1969,Brasil,73.9,-130,130,-180,130,130,B,Single-ply,1
Masters 2,Ticona Nieto Julio,74,M,1959,Peru,73.7,-125,125,-137.5,125,125,B,Single-ply,1
Open,Jamilson Amancio dos Santos,83,M,1974,Brasil,82.6,-225,-225,225,225,225,B,Single-ply,1
Sub-Juniors,Felipe Rodrigues da Silva,83,M,1996,Brasil,76.9,80,-120,-125,80,80,B,Single-ply,1
Masters 1,Mauro Borba,83,M,1968,Brasil,82.4,190,-198,-200,190,190,B,Single-ply,1
Masters 1,Jose Pimentel,83,M,1964,Peru,79.4,100,130,137.5,137.5,137.5,B,Single-ply,2
Paralympics,Luiz Carlos Novaes,83,M,1966,Brasil,81.8,172.5,180,-182.5,180,180,B,Single-ply,1
Open,Daniel Fernandez,93,M,1970,Uruguay,86.2,-227.5,227.5,235.5,235.5,235.5,B,Single-ply,1
Open,Reginaldo Francisco Rosa,93,M,1980,Brasil,90.8,-220,220,230,230,230,B,Single-ply,2
Juniors,Rosbinson Almeida,93,M,1990,Brasil,91.7,150,-205,-215,150,150,B,Single-ply,1
Masters 1,Aristi Adalberto,93,M,1966,Argentina,88.1,165,175,-180,175,175,B,Single-ply,1
Masters 1,Teoaldo Schroeder,93,M,1971,Brasil,85.5,-167.5,-167.5,-167.5,,,B,Single-ply,DQ
Masters 2,Aparecido da Silva,93,M,1959,Brasil,85.8,130,150,160,160,160,B,Single-ply,1
Masters 3,Herbert Schogel,93,M,1951,Brasil,92.2,115,125,132.5,132.5,132.5,B,Single-ply,1
Masters 3,Moacir Loss,93,M,1950,Brasil,88.6,100,105,110,110,110,B,Single-ply,2
Open,Rudi Vieira,105,M,1983,Brasil,94.7,240,-247.5,-255,240,240,B,Single-ply,1
Open,Heber Sena,105,M,1973,Uruguay,104.7,190,200,-217.5,200,200,B,Single-ply,2
Open,Eduardo Rodriguez,105,M,1962,Uruguay,94.7,135,145,150,150,150,B,Single-ply,3
Juniors,Jonatan Kaitazof,105,M,1992,Uruguay,97.7,-190,-190,190,190,190,B,Single-ply,1
Sub-Juniors,Rafael Guidotti Dalmazo,105,M,1994,Brasil,104.8,140,180,-200,180,180,B,Single-ply,1
Masters 1,Edmur Pessoa,105,M,1967,Brasil,103.9,160,246,-269,246,246,B,Single-ply,1
Masters 1,Rafael Casulo,105,M,1968,Uruguay,102.5,210,-217.5,217.5,217.5,217.5,B,Single-ply,2
Masters 1,Paulo Roberto Arrais,105,M,,Brasil,103.3,130,-180,-190,130,130,B,Single-ply,3
Masters 3,José Leme Camargo,105,M,1947,Brasil,98.5,-130,-130,130,130,130,B,Single-ply,1
Masters 4,Claudir Soares Lopes,105,M,1940,Brasil,99.9,175,180,-185,180,180,B,Single-ply,1
Open,Leonardo F. Negri,120,M,1984,Brasil,114.5,-240,240,-282.5,240,240,B,Single-ply,1
Juniors,Renato Rosa,120,M,1989,Brasil,119.4,140,160,-180,160,160,B,Single-ply,1
Masters 2,Antonio Donizete Natalino,120,M,1957,Brasil,110.7,90,140,-145,140,140,B,Single-ply,1
Masters 3,Serafim Rocha,120,M,1948,Brasil,116.5,150,-155,155,155,155,B,Single-ply,1
Open,José A. Hadad Thiago,120+,M,1986,Brasil,198.7,-260,-260,260,260,260,B,Single-ply,1
Masters 1,Nelson Dell'aquila,120+,M,,Brasil,162.4,150,-190,-200,150,150,B,Single-ply,1
