                     UPA Power Weekend-Lb Results
                                      BWt WtCls                                              Best       Coeff    Age &
        Name          Age     Div                    Schwartz   Bench 1 Bench 2 Bench 3                                   Pl-Div-WtCl
                                      (LB)    (LB)                                          Bench       Score     Coeff
Peter Cade             50  MM3R-AD 188.3       198    0.605 -330.69 -330.69 -330.69            0           0        0          0
Mark Hauschildt        34  MSMR-AD 246.7       275   0.5354 501.55 -518.08 -518.08         501.5465   121.8035      0    1-MSMR-AD-125 *Raw Best Lifter
Karl Heille            45   MM2R      192.7    198    0.596  286.6 -297.62 -297.62          286.598      77.48   81.7414  1-MM2R-90
Dan Banwarth           48   MM2R      299.8    308   0.5078 369.27 -402.34 402.34          402.3395    92.6735 101.66282 1-MM2R-140
Shawn Berneman         41   MM1R      249.1    275   0.5332 352.74 363.76 -380.29           363.759     87.978  88.85778 1-MM1R-125

Scott Marsiglio       38    MSMR      197.5   198    0.5869     308.64   319.67   325.18   325.1785   86.56775      0      1-MSMR -90

Jace Beauchaine       21     MJR      161.4   165    0.6774     275.58 292.11     -303.13 292.1095   89.7555  91.55061  1-MJR-75
Andrew Bahr           22     MJR      238.1   242    0.5391     424.39 440.92      451.94 451.943   110.5155 111.62065 1-MJR-110
Brandon Baumann       17     MT2R     213.4   220    0.5624     275.58 297.62     -314.16 297.621     75.924  81.99792 1-MT2R-100
Dylan Heille          15     MT1R     160.1   165     0.682     248.02 264.55     -275.58 264.552      81.84   96.5712 1-MT1R-75
Jay Baltierra         15     MT1      180.8   181    0.6219     374.78 402.34     -413.36 402.3395 113.49675 133.92616 1-MT1-82.5
Corey Lyon            28     MOR      174.6   181    0.6376     363.76 374.78     -385.81 374.782    108.392      0    1-MOR-82.5
Tom Waldrep (Open)    47     MOR      218.3   220    0.5565     440.92 462.97      -479.5  462.966   116.865 126.44793 1-MOR-100
Tom Waldrep (MM2)     47     MOR      218.3   220    0.5565     440.92 462.97      -479.5  462.966   116.865 126.44793 1-MOR-100
Jamie Weldin          36     MOR       239    242    0.5385     457.45 -473.99    -473.99 457.4545 111.73875      0    1-MOR-110

T.J. Reck             30     MOR      253.5   275    0.5314      418.87 440.92 -462.97    440.92   106.28      0      1-MOR-125
Kevin Crock           32     MOR      271.6   275    0.5235      407.85 435.41 -457.45 435.4085 103.39125      0      2-MOR-125
Josh Vondran          29     MOR       280    308    0.5186      457.45 479.5 -501.55 479.5005 112.7955        0      1-MOR-140
W.T. Franklin         34     MOR       295    308    0.5104      457.45 -501.55 -501.55 457.4545  105.908      0      2-MOR-140
Cozy Cozine           55    MM4-AD    262.8   275    0.5277      501.55 -534.62 -551.15 501.5465 120.05175 147.06339 1-MM4-AD-125
Mike Olmstead         31    MO-AD     282.2   308    0.5174      413.36 -429.9 -429.9 413.3625    97.0125      0     1-MO-AD-140
                                                                                                           146.60454
Stan Mingus           62     MM5      214.3   220    0.5613      374.78 413.36     0    413.3625 105.24375     38     1-MM5-100
Clay Barnett          62     MM5      258.4   275    0.5295      407.85 -440.92 -440.92  407.851  97.9575  136.45479  1-MM5-125
Andy Olson            59     MM4      145.9   148    0.7387      231.48 253.53 -264.55 253.529    84.9505 111.70990 1-MM4-67.5
Steve Egli            56     MM4       179    181    0.6262      -336.2 -336.2     0        0        0         0          0
David Harrison        43     MM1      264.1   275    0.5272      556.66 -584.22 -584.22 556.6615  133.118 137.24465 1-MM1-125
Chad Truitt           37     MSM       235    242    0.5411      418.87 435.41 -451.94 435.4085 106.86725      0      1-MSM-110
Dan Grauerholz        35     MSM      274.7   275    0.5216      628.31 -661.38 -661.38 628.311   148.656      0      1-MSM-125
Rudy Hillyard         36     MO       179.5   181    0.6251     -407.85 424.39 440.92     440.92   125.02      0       1-MO-82.5
Chris Dejongh         27     MO       179.9   181    0.6241      -716.5 -727.52 -738.54     0        0         0          0
Brad Colman    24   MO   192.2   198   0.5969 347.22 -380.29   -380.29 347.2245   94.01175   0   1-MO-90
Jake Prazak    34   MO   219.6   220    0.555  -909.4  909.4   -914.91 909.3975   228.9375   0   1-MO-100   *Equipped Best Lifter
Dylan Hanson   30   MO   238.5   242   0.5388 -650.36 650.36   -666.89 650.357     158.946   0   1-MO-110
Paul Harris    39   MO   283.1   308   0.5169 716.5 744.05      804.68 804.679    188.6685   0   1-MO-140
                  UPA Power Weekend-Lb Results
                             BWt     WtCls                                       Best
                                                        Deadlift Deadlift Deadlift         Coeff
       Name       Age    Div                 Schwartz                                             Pl-Div-WtCl
                             (Kg)    (Kg)                  1        2        3 Deadlift    Score
Wally Hayward     57    MM4R   90      90    0.5853        0      0       0       0          0         0
Adam Becker       22     MJR  81.2    82.5   0.6262     473.99 501.55 518.08 518.081      147.157 1-MJR-82.5
Marcus DeVore     23     MJR 139.2    140    0.5043      622.8 -699.96 -699.96 622.7995 142.46475 1-MJR-140
Frankie Santoro   18    MT3 109.8     110    0.5367     650.36 -705.47 -705.47 650.357   158.3265 1-MT3 -110
Wally Hayward     57    MM4R 83.2      90    0.6157     319.67 358.25 380.29   380.2935 106.20825 1-MM4R-90
                   UPA Power Weekend-Lb Results
                             BWt       WtC                                     Best Deadlift Deadlift Deadlift  Best    Push Pull      Coeff
        Name       Age   Div                 Schwartz   Bench 1 Bench 2 Bench 3                                                                 Pl-Div-WtCl
                             (LB)      (LB                                    Bench    1        2        3     Deadlift   Total        Score
Jennifer Foster    27 FOR-AD 129.2     132   0.8788     115.74 132.28 -137.79 132.28 286.6 -319.67 319.67 319.67 451.943              180.154   1-FOR-AD-60
Katie Highland     32 FOR-AD 128.3     132   0.8838     115.74 -132.28 132.28 132.28 225.97 248.02 264.55 264.55 396.828              159.084   2-FOR-AD-60

Don Gulling        45 MM2R-AD257.5     275   0.5298 308.64 325.18 341.71 341.71 485.01 512.57 534.62               534.62   876.3285 210.5955 1-MM2R-AD-125
Sean Pua           21   MJR   116      123   0.9389 -242.51 -242.51 -242.51  0    341.71 385.81 -402.34            385.81       0         0         0
Alex Baldwin       22   MJR 150.4      165   0.7192 203.93 -214.95 -214.95 203.93 281.09 -314.16 -314.16           281.09    485.012   158.224   1-MJR-75
Joey Welsh         18 MT3R 191.8       198   0.5978 314.16 -325.18 -325.18 314.16 512.57 545.64 -562.17            545.64    859.794   233.142  1-MT3R-90
Josh Lopez         16 MT2R 160.9       165   0.6789 203.93 -214.95 -214.95 203.93 385.81 418.87 -440.92            418.87   622.7995 191.78925 1-MT2R-75
Andrew Fraczek     16 MT2R 167.1       181    0.659 159.83 181.88 -192.9 181.88 -325.18 336.2 -374.78               336.2    518.081   154.865 1-MT2R-82.5
Quentin Septer     16 MT2R 190.9       198   0.5995 259.04 -270.06 -270.06 259.04 501.55 -540.13 -540.13           501.55    760.587  206.8275 1-MT2R-90
Sam Wilson         15 MT1R 140.2       148   0.7671 148.81 165.35 -187.39 165.35 225.97 253.53 275.58              275.58     440.92    153.42 1-MT1R-67.5
Sam Fuentes        15 MT1R 192.2       198   0.5969 187.39 -220.46 -220.46 187.39 275.58 308.64 319.67             319.67    507.058   137.287  1-MT1R-90
Adam Cornelis      26  MOR 195.3       198    0.591 314.16 341.71 -363.76 341.71 501.55 551.15 606.27              606.27    947.978    254.13  1-MOR-90
Ryan Feuerhammer   31  MOR 214.7       220   0.5608 347.22 -363.76 -374.78 347.22 562.17 606.27 -644.85            606.27   953.4895   242.546  1-MOR-100
Jacob Prater       31    MOR   216.9   220   0.5581     275.58   303.13 -314.16 303.13     523.59   562.17 -584.22 562.17   865.3055 219.05425 2-MOR-100
Paul Gonzalez      28    MOR   215.6   220   0.5597 303.13 314.16       -330.69   314.16   490.52   518.08 540.13 540.13 854.2825 216.88375 3-MOR-100
Jason Weipert      28    MOR    220    220   0.5545 253.53 264.55        -286.6   264.55   534.62   562.17 -584.22 562.17 826.725  207.9375 4-MOR-100
Ryan Murphy        39    MSM   299.4   308    0.508 402.34 440.92       -457.45   440.92   501.55    573.2 600.75 600.75 1041.6735   240.03 1-MSM-140
Phil Schultz       45    MO    231.9   242   0.5434 589.73 -661.38      -661.38   589.73   639.33   -672.4 -672.4 639.33 1229.0645 302.9455  1-MO-110
Frank Tekautz      40    MO    233.2   242   0.5424 385.81 413.36       -424.39   413.36   633.82   710.98 -722.01 710.98 1124.346  276.624  2-MO-110
Byron Hicks        34    MO    268.5   275   0.5251 -551.15 551.15      -600.75   551.15   606.27      0      0    606.27 1157.415 275.6775  1-MO-125
Wiley Rung         30    MO     295    308   0.5104 578.71 -628.31      -628.31   578.71   567.68   600.75 -617.29 600.75 1179.461  273.064  1-MO-140
                              UPA Power Weekend-Lb Results
                                              BWt     WtCls                                             Best                                   Best     Sub   Deadlift Deadlift Deadlift    Best                    Coeff
          Name                Age     Div                     Schwartz   Squat 1 Squat 2 Squat 3                Bench 1 Bench 2 Bench 3                                                               PL Total                Pl-Div-WtCl
                                               (LB    (LB)                                             Squat                                  Bench     Total   1        2        3        Deadlift                 Score
Bonnie Meerschaert            41      FM1R    128.7    132    0.8361      220.46    242.51   -259.04   242.51    115.74   -132.28   -132.28   115.74   358.25 231.48 248.02 253.53         253.53      611.7765   232.01775   1-FM1R -60
Brittany Demmer               19      FT3R    170.6    181    0.6486      314.16     336.2   -363.76   336.2     159.83    181.88    -192.9   181.88   518.08 363.76 402.34 429.9          429.9       947.978     278.898    1-FT3R-82.5
Brittany Demmer (AD)          19    FT3R-AD   170.6    181    0.6486      314.16     336.2   -363.76   336.2     159.83    181.88    -192.9   181.88   518.08 363.76 402.34 429.9          429.9       947.978     278.898    1-FT3R-AD-82.5   *Raw Women's Best Lifter
Brittany Hammond              35     FOR-AD    114     114    0.9558      159.83     192.9   -214.95   192.9     115.74   -126.76   -126.76   115.74   308.64 220.46 242.51 264.55         264.55      573.196     248.508    1-FOR-AD-52
Ashley Woods                  27     FOR-AD   185.2    198    0.6117      236.99    248.02   -264.55   248.02    154.32    165.35   -181.88   165.35   413.36 264.55 286.6 -303.13         286.6       699.9605   194.21475   1-FOR-AD-90
Jennifer Gimmell              30        FO    210.8   SHW     0.566      -440.92    440.92    501.55   501.55    121.25    242.51   -270.06   242.51   744.05 330.69 358.25 -380.29        358.25       1102.3       283       1-FO-SHW
Rob Buchla                    47      MM2R    211.2    220    0.5654      132.28       0         0     132.28    275.58   -341.71   -341.71   275.58   407.85 154.32      0        0       154.32      562.173     144.177    1-MM2R-100
Korey Pfeiffer                40      MM1R    196.7    198    0.5885      507.06    540.13   -556.66   540.13    407.85    429.9     446.43   446.43   986.56 512.57 551.15 600.75         600.75      1587.312     423.72     1-MM1R-90
Mark Willing                  44      MM1R    216.5    220    0.5586      451.94   -490.52    507.06   507.06    330.69    363.76   -380.29   363.76   870.82 501.55 540.13        0       540.13      1410.944    357.504    1-MM1R-100
Ernie Lillibridge Sr. (SM)    39      MSMR     308     308    0.5034      661.38    705.47    722.01   722.01    440.92    473.99       0     473.99    1196  661.38 716.5 -760.59         716.5      1912.4905    436.6995   1-MSMR-140
Jordan Lentz                  20       MJR    178.6    181    0.6273      457.45    485.01    501.55   501.55    314.16    336.2    -347.22   336.2    837.75 518.08 567.68 -573.2         567.68     1405.4325   399.90375   1-MJR -82.5
Bobby Hickson                 22       MJR    188.3    198    0.605       325.18    369.27   -385.81   369.27    165.35   -170.86   -170.86   165.35   534.62 413.36 468.48 -479.5         468.48      1003.093    275.275      1-MJR -90
Ernie Lilliebridge Jr. (Jr)   23       MJR    218.7    220    0.556       551.15    606.27    633.82   633.82    363.76    402.34   -418.87   402.34   1036.2 661.38 710.98 -722.01        710.98     1747.1455     440.63     1-MJR -100
Dave Nelson                   22       MJR    207.2    220    0.571       545.64    584.22    600.75   600.75    369.27    402.34   -418.87   402.34   1003.1 567.68      0        0       567.68     1570.7775    406.8375    2-MJR -100
Brandon Cunningham            20       MJR    205.9    220    0.573       314.16    358.25   -374.78   358.25    209.44    231.48   -242.51   231.48   589.73 363.76 407.85 429.9          429.9      1019.6275    265.0125    3-MJR -100
Adam Windschitl               21       MJR    230.6    242    0.5444      374.78    402.34     429.9   429.9     225.97    242.51    264.55   264.55   694.45 457.45 512.57 529.1          529.1       1223.553    302.142     1-MJR -110
Spencer Behne                 19      MT3R     198     198    0.5853      457.45    485.01    507.06   507.06    303.13    319.67     336.2   336.2    843.26 523.59 562.17 -600.75        562.17     1405.4325   373.12875    1-MT3R -90
Chris Hickson                 19      MT3R     275     275    0.521      -600.75    -622.8     622.8   622.8     303.13    325.18   -341.71   325.18   947.98 705.47 771.61 -821.21        771.61      1719.588     406.38    1-MT3R -125
Kevin Heitz                   49    MM2R-AD   216.5    220    0.5586      347.22    369.27    402.34   402.34    242.51    259.04   -275.58   259.04   661.38 363.76 385.81 407.85         407.85      1069.231    270.921    1-MM2R-AD-100
Andy Siar                     23     MJR-AD   217.4    220    0.5575      545.64    578.71    606.27   606.27    352.74   -369.27       0     352.74     959  534.62 573.2 -606.27         573.2       1532.197    387.4625   1-MJR-AD-100
Cody Treft                    20     MJR-AD   210.8    220    0.566       451.94   -485.01    485.01   485.01    281.09    308.64   -319.67   308.64   793.66 628.31 -683.43 683.43        683.43      1477.082     379.22    2-MJR-AD-100
Tyrel Detweiler               22     MJR-AD   275.1    275    0.5213      407.85     429.9    468.48   468.48   -253.53    264.55    -286.6   264.55   733.03 468.48 490.52 512.57         512.57      1245.599    294.5345   1-MJR-AD-125
Colton Magers                 17    MT1R-AD   151.7    165    0.7137      413.36   -440.92   -440.92   413.36    209.44   -225.97   -225.97   209.44   622.8 402.34 -424.39 424.39         424.39      1047.185    339.0075   1-MT1R-AD-75
A.J. Kneppers                 28    MOR-AD    162.7    165    0.673      -385.81    385.81   -435.41   385.81    225.97    242.51   -253.53   242.51   628.31 457.45 507.06 518.08         518.08      1146.392     349.96    1-MOR-AD-75
Jason Eggers                  30    MOR-AD    195.8    198    0.5901      501.55     529.1    -573.2   529.1     303.13   -325.18    -336.2   303.13   832.24 529.1 551.15 -573.2          551.15     1383.3865   370.28775   1-MOR-AD-90
Steve Sass                    35    MOR-AD    214.3    220    0.5613      451.94     479.5       0     479.5     325.18    341.71   -352.74   341.71   821.21 540.13 584.22 606.27         606.27     1427.4785   363.44175   1-MOR-AD-100
Drew Strube                   28    MOR-AD    240.7    242    0.5375      545.64   -589.73   -600.75   545.64    341.71      0          0     341.71   887.35 534.62 589.73 -611.78        589.73      1477.082    360.125    1-MOR-AD-110
Carlo Brewster                38    MOR-AD    273.8    275    0.5221     -551.15    600.75    628.31   628.31    407.85    440.92   -473.99   440.92   1069.2 501.55 573.2 617.29          617.29      1686.519    399.4065   1-MOR-AD-125
James Cahill                  38    MOR-AD    303.8    308    0.5058      584.22    639.33    661.38   661.38    396.83    418.87     429.9   429.9    1091.3 617.29 694.45 744.05         744.05      1835.33     409.698    1-MOR-AD-140
Brad Madvig                   37    MOR-AD    356.3   SHW     0.482       644.85    694.45    738.54   738.54    451.94    473.99    496.04   496.04   1234.6 650.36 694.45 716.5          716.5       1951.071     426.57    1-MOR-AD-SHW
Erv Domanski                  40     MO-AD    196.2    198    0.5893      628.31     672.4   -722.01   672.4     385.81   -407.85    -429.9   385.81   1058.2 545.64 584.22 -622.8         584.22      1642.427    439.0285   1-MO-AD-90
Wes Keith                     31       MOR    164.5    165    0.6673     -424.39    424.39    446.43   446.43    330.69    341.71   -352.74   341.71   788.14 501.55 507.06 600.75         600.75      1388.898    420.399     1-MOR-75
Wille Albert                  31       MOR    177.2    181    0.6307      573.2     606.27     622.8   622.8    -341.71    341.71    363.76   363.76   986.56 650.36 -716.5 -716.5         650.36     1636.9155   468.29475   1-MOR-82.5
Tony Runde                    30       MOR    195.3    198    0.591       611.78   -650.36   -683.43   611.78    336.2     369.27    396.83   396.83   1008.6 567.68 595.24 606.27         606.27     1614.8695    432.9075    1-MOR-90
Justin Heimer                 25       MOR    197.5    198    0.5869      512.57   -562.17    562.17   562.17   -314.16   -325.18    325.18   325.18   887.35 551.15 600.75 -633.82        600.75      1488.105    396.1575    2-MOR-90
Kyle Messerly                 25       MOR    197.5    198    0.5869     -661.38   -727.52   -727.52     0         0         0          0       0         0      0        0        0         0             0           0          0
Ernie lilliebridge Jr.        23       MOR    218.7    220    0.556       551.15    606.27    633.82   633.82    363.76    402.34   -418.87   402.34   1036.2 661.38 710.98 -722.01        710.98     1747.1455     440.63    1-MOR-100
Patrick Warren                25       MOR    216.9    220    0.5581      418.87    446.43    473.99   473.99    303.13   -325.18    -336.2   303.13   777.12 518.08 567.68 589.73         589.73      1366.852    346.022    2-MOR-100
Ben Goyette                   29       MOR    219.6    220    0.555      -485.01    485.01   -501.55   485.01    325.18   -363.76   -363.76   325.18   810.19 457.45 507.06 -562.17        507.06     1317.2485    331.6125   3-MOR-100
Mark Boland                   33       MOR    211.2    220    0.5654      286.6     303.13    314.16   314.16    242.51    253.53   -259.04   253.53   567.68 435.41 468.48 501.55         501.55      1069.231    274.219    4-MOR-100
Abe Weins                25   MOR    242     242   0.5365    501.55    551.15    584.22   584.22 352.74 -385.81 385.81 385.81     970.02 622.8 650.36        672.4   672.4     1642.427    399.6925    1-MOR-110
Tim Filus                29   MOR    235     242   0.5411    578.71    606.27   -628.31   606.27 358.25 374.78 -391.32 374.78     981.05 600.75 622.8      -650.36   622.8    1603.8465   393.65025    2-MOR-110
Jesse Brill              30   MOR    242     242   0.5365    501.55   -523.59   -562.17   501.55 347.22 352.74 -369.27 352.74     854.28 462.97 501.55     -540.13   501.55    1355.829    329.9475    3-MOR-110
Eric Lilliebridge        21   MOR   261.9    275   0.5281   -705.47    766.1     804.68   804.68 451.94 501.55 523.59 523.59      1328.3 705.47 760.59      804.68   804.68   2132.9505   510.93675    1-MOR-125 *Raw Best Lifter
Eric Lilliebridge (Jr)   21   MOR   261.9    275   0.5281   -705.47    766.1     804.68   804.68 451.94 501.55 523.59 523.59      1328.3 705.47 760.59      804.68   804.68   2132.9505   510.93675    1-MOR-125
Cameron Richler          30   MOR   262.8    275   0.5277    628.31   -661.38   -661.38   628.31 369.27 391.32 -413.36 391.32     1019.6 562.17 584.22      606.27   606.27   1625.8925   389.17875    3-MOR-125
Ernie Lilliebridge Sr.   39   MOR   295.9    308    0.51     661.38    705.47    722.01   722.01 440.92 473.99      0    473.99    1196   661.38 716.5     -760.59   716.5    1912.4905    442.425     1-MOR-140
Matt Fredericks          34   MOR   286.6    308   0.515     501.55   -523.59   -523.59   501.55 341.71 358.25 369.27 369.27      870.82 457.45 490.52     -501.55   490.52   1361.3405    318.0125    2-MOR-140
Bret Oswald              25   MOR   328.5   SHW    0.4939    628.31    683.43    716.5    716.5 363.76 402.34 -424.39 402.34      1118.8 650.36 -705.47     727.52   727.52   1846.3525   413.64125   1-MOR-SHW
John Wood                58   MM4    239     242   0.5385   -666.89    666.89   -699.96   666.89 479.5 501.55 512.57 512.57       1179.5 501.55     0          0     501.55   1681.0075   410.60625    1-MM4-110
Brad Saunders            48   MM2    254     275   0.5312   -639.33   -639.33   -710.98     0       0       0       0      0         0      0       0          0       0          0            0           0
Tony Chirico (MM1)       41   MM1   238.1    242   0.5391   -771.61   -771.61      0        0       0       0       0      0         0      0       0          0       0          0            0           0
Dwayne Warren            21    MJ   238.5    242   0.5388    777.12    815.7     821.21   821.21 551.15 589.73 606.27 606.27      1427.5 606.27 633.82     -661.38   633.82    2061.301    503.778      1-MJ-110
Jeff Adkins              29   MO     198     198   0.5861    -766.1    766.1     804.68   804.68 589.73 617.29 -628.31 617.29      1422   600.75 644.85    -683.43   644.85   2066.8125   549.46875     1-MO-90
Kyle Nadrchal            28   MO    218.7    220   0.556     683.43    733.03    766.1    766.1 -501.55 501.55 529.1     529.1    1295.2 523.59 567.68      584.22   584.22   1879.4215     473.99      1-MO-100
Justin Graafls           32   MO    240.7    242   0.5375    964.51    1025.1   -1052.7   1025.1 -617.29 617.29 -639.33 617.29    1642.4 766.1 -804.68      804.68   804.68    2447.106    596.625      1-MO-110 *Equipped Best Lifter
Josh Beauregard          26   MO    238.1    242   0.5391    738.54   -771.61   -771.61   738.54    0       0       0      0         0      0       0          0       0          0            0           0
Tony Chirico             41   MO    238.1    242   0.5391   -771.61   -771.61      0        0       0       0       0      0         0      0       0          0       0          0            0           0
Marshall Johnson         28   MO    272.3    275   0.5231   -975.54    975.54    1041.7   1041.7 611.78 655.87 -705.47 655.87     1697.5 -777.12 -777.12   -777.12     0          0            0           0
Anthony Carlquist        32   MO    267.6    275   0.5256   -975.54   -1003.1   -1003.1     0       0       0       0      0         0      0       0          0       0          0            0           0
Jim Grandick             42   MO    271.6    275   0.5235   -936.96    936.96    970.02   970.02 -733.03 -733.03 -733.03   0         0      0       0          0       0          0            0           0
Mike Neuendorf           21   MO    276.9    308   0.5203    804.68   -826.73    826.73   826.73 567.68 -578.71 -578.71 567.68    1394.4 633.82 677.91     -705.47   677.91    2072.324    489.082      1-MO-140
Neil Heisick             28   MO    278.7    308   0.5193   -804.68   -804.68    804.68   804.68 556.66 589.73 -600.75 589.73     1394.4 600.75 -622.8      -622.8   600.75    1995.163    469.9665     2-MO-140
